<svg width="166" height="46" viewBox="0 0 166 46" fill="none" xmlns="http://www.w3.org/2000/svg">
<g clip-path="url(#clip0_334_2662)">
<path d="M7.5764 0H0V43.6467H7.5764V0Z" fill="#FFEA0D"/>
<path d="M15.1636 43.6467H7.57617L19.6874 12.1626H27.2748L15.1636 43.6467Z" fill="#FFEA0D"/>
<path d="M34.8513 12.1626H27.2749V43.6467H34.8513V12.1626Z" fill="#FFEA0D"/>
<path d="M42.4389 43.6467H34.8516L46.9628 12.1626H54.5502L42.4389 43.6467Z" fill="#FFEA0D"/>
<path d="M62.1267 12.1626H54.5503V43.6467H62.1267V12.1626Z" fill="#FFEA0D"/>
<path d="M69.7138 43.6467H62.1265L74.2377 12.1626H81.8251L69.7138 43.6467Z" fill="#FFEA0D"/>
<path d="M89.4016 12.1626H81.8252V43.6467H89.4016V12.1626Z" fill="#FFEA0D"/>
<path d="M102.984 43.3277H103.072C103.248 43.3277 103.335 43.2397 103.335 43.0308V35.19C103.335 35.003 103.248 34.8931 103.072 34.8931H102.984C102.797 34.8931 102.709 35.003 102.709 35.19V42.9978C102.709 43.2067 102.797 43.2947 102.984 43.2947V43.3277ZM105.762 43.2947H105.839C105.993 43.2947 106.113 43.2947 106.113 42.9978V39.0609C106.259 38.6579 106.522 38.3082 106.869 38.0571C107.215 37.8061 107.629 37.6653 108.057 37.6533C109.232 37.6533 109.814 38.3901 109.814 39.5997V43.0308C109.814 43.2727 109.935 43.3277 110.088 43.3277H110.165C110.319 43.3277 110.429 43.3277 110.429 43.0308V39.0719C110.569 38.6626 110.832 38.3067 111.182 38.0528C111.531 37.7988 111.951 37.6593 112.383 37.6533C113.481 37.6533 114.14 38.4011 114.14 39.7427V43.0418C114.14 43.2837 114.261 43.3387 114.414 43.3387H114.491C114.645 43.3387 114.755 43.3387 114.755 43.0418V39.7427C114.755 38.0602 113.92 37.1254 112.427 37.1254C111.96 37.1155 111.501 37.2466 111.109 37.5016C110.718 37.7565 110.412 38.1236 110.231 38.555C110.09 38.117 109.807 37.7385 109.428 37.4795C109.048 37.2206 108.592 37.0959 108.134 37.1254C107.715 37.1269 107.305 37.2423 106.948 37.4592C106.59 37.6762 106.298 37.9866 106.102 38.3571V37.8292C106.102 37.3234 105.927 37.2134 105.707 37.2134C105.635 37.2097 105.565 37.2333 105.509 37.2794V43.0747C105.509 43.3167 105.619 43.3717 105.773 43.3717L105.762 43.2947ZM118.312 43.4486C118.796 43.4721 119.276 43.3613 119.701 43.1284C120.125 42.8955 120.477 42.5496 120.717 42.129V42.7558C120.717 43.2617 120.904 43.3717 121.112 43.3717C121.18 43.3921 121.253 43.3921 121.321 43.3717V39.4348C121.346 39.1128 121.299 38.7894 121.184 38.4875C121.07 38.1856 120.891 37.9126 120.659 37.688C120.427 37.4633 120.149 37.2925 119.844 37.1877C119.539 37.0829 119.215 37.0466 118.894 37.0814C118.511 37.0639 118.129 37.1229 117.768 37.255C117.408 37.3872 117.078 37.5899 116.797 37.8512C116.591 38.009 116.447 38.235 116.391 38.489C116.391 38.808 116.731 38.8519 116.742 38.8519C116.939 38.4803 117.238 38.1729 117.604 37.9663C117.97 37.7597 118.387 37.6625 118.807 37.6863C119.052 37.6576 119.302 37.6841 119.536 37.7638C119.77 37.8435 119.984 37.9744 120.162 38.1471C120.339 38.3197 120.476 38.5297 120.563 38.762C120.65 38.9942 120.683 39.2428 120.662 39.4898V39.7977H120.541C117.489 39.8527 116.149 40.4135 116.149 41.7881C116.149 42.8108 116.962 43.4486 118.258 43.4486H118.312ZM118.258 42.9538C117.324 42.9538 116.731 42.5139 116.731 41.7881C116.731 40.7654 117.829 40.3365 120.454 40.2815H120.618V40.8864C120.568 41.4483 120.304 41.9693 119.881 42.3418C119.458 42.7143 118.908 42.9098 118.345 42.8878L118.258 42.9538ZM125.098 45.9779C127.009 45.9779 128.14 45.3291 128.14 44.1964C128.14 43.0638 127.141 42.7998 126.196 42.5799C125.252 42.36 124.483 42.25 124.483 41.7881C124.479 41.7082 124.498 41.6287 124.537 41.5588C124.576 41.4888 124.633 41.4311 124.703 41.3922H125.109C125.415 41.4146 125.722 41.3749 126.012 41.2754C126.302 41.1758 126.569 41.0186 126.796 40.8132C127.024 40.6077 127.208 40.3583 127.337 40.0798C127.466 39.8014 127.537 39.4997 127.547 39.1928C127.54 38.6791 127.345 38.1858 126.998 37.8072L127.986 36.7076C127.986 36.5206 127.547 36.1797 127.217 36.7076L126.646 37.4773C126.203 37.1649 125.673 36.9995 125.131 37.0045C124.829 36.9882 124.526 37.0324 124.24 37.1346C123.955 37.2368 123.693 37.3948 123.469 37.5995C123.245 37.8042 123.064 38.0515 122.937 38.327C122.809 38.6024 122.738 38.9005 122.727 39.2038C122.732 39.656 122.882 40.0945 123.155 40.4548C123.427 40.8151 123.809 41.0781 124.242 41.2053C124.136 41.2693 124.047 41.3595 123.986 41.4673C123.924 41.5751 123.892 41.6969 123.89 41.8211C123.895 41.9613 123.941 42.097 124.024 42.2107C124.106 42.3243 124.22 42.4108 124.352 42.4589C123.254 42.6679 122.276 43.3057 122.276 44.2514C122.276 45.1972 123.221 45.901 125.098 45.901V45.9779ZM125.098 40.8534C124.771 40.8319 124.457 40.715 124.196 40.5171C123.934 40.3192 123.736 40.0489 123.626 39.7396C123.516 39.4303 123.498 39.0954 123.576 38.7763C123.653 38.4573 123.823 38.1679 124.062 37.9439C124.302 37.72 124.602 37.5712 124.925 37.5159C125.249 37.4607 125.581 37.5013 125.881 37.633C126.182 37.7646 126.437 37.9814 126.616 38.2566C126.795 38.5318 126.89 38.8535 126.888 39.1819C126.904 39.4137 126.87 39.6462 126.79 39.8644C126.711 40.0825 126.586 40.2815 126.424 40.4484C126.263 40.6152 126.068 40.7463 125.853 40.8331C125.638 40.92 125.407 40.9606 125.175 40.9524L125.098 40.8534ZM125.175 45.4941C123.726 45.4941 122.979 45.0872 122.979 44.3944C122.979 43.7016 124.077 43.0528 125.252 42.9648L126.108 43.1737C126.888 43.3497 127.624 43.6356 127.624 44.2734C127.624 45.0872 126.712 45.5271 125.208 45.5271L125.175 45.4941ZM129.403 39.8417C129.457 39.2427 129.733 38.6855 130.175 38.2788C130.618 37.8722 131.196 37.6453 131.796 37.6423C132.088 37.6298 132.379 37.6782 132.651 37.7843C132.923 37.8905 133.17 38.052 133.377 38.2588C133.583 38.4656 133.745 38.713 133.85 38.9855C133.956 39.258 134.005 39.5495 133.992 39.8417H129.403ZM129.403 40.3695H134.344C134.53 40.3695 134.607 40.3695 134.607 40.1496V40.0836C134.641 39.701 134.594 39.3154 134.469 38.9523C134.344 38.5891 134.144 38.2564 133.882 37.9761C133.62 37.6958 133.301 37.4741 132.948 37.3256C132.594 37.1771 132.213 37.1052 131.829 37.1144C131.418 37.1139 131.011 37.1972 130.633 37.3593C130.255 37.5213 129.914 37.7588 129.63 38.0571C129.347 38.3555 129.127 38.7085 128.984 39.0947C128.841 39.4809 128.778 39.8922 128.799 40.3035C128.781 40.7055 128.844 41.1068 128.985 41.4836C129.126 41.8604 129.341 42.2049 129.618 42.4965C129.895 42.7881 130.227 43.0207 130.596 43.1806C130.965 43.3404 131.362 43.4241 131.763 43.4267C132.565 43.4653 133.352 43.1936 133.959 42.6679C134.156 42.4958 134.291 42.2641 134.344 42.0081C134.341 41.9127 134.302 41.822 134.234 41.7545C134.167 41.687 134.077 41.6479 133.981 41.6452C133.786 42.057 133.467 42.3978 133.07 42.6205C132.673 42.8431 132.216 42.9365 131.763 42.8878C131.43 42.8955 131.098 42.8348 130.789 42.7095C130.479 42.5841 130.199 42.3967 129.964 42.1588C129.73 41.9209 129.546 41.6375 129.425 41.326C129.304 41.0146 129.248 40.6816 129.26 40.3475" fill="white"/>
<path d="M104.708 32.5727C105.038 32.5727 105.092 32.4737 105.158 32.2868L107.256 26.1065L109.265 32.2868C109.331 32.4737 109.419 32.5727 109.737 32.5727C110.056 32.5727 110.198 32.5067 110.242 32.2978L112.23 24.281C112.23 24.1931 111.67 23.8961 111.527 24.5669L109.803 31.8909L107.75 25.8426C107.662 25.5897 107.585 25.4687 107.256 25.4687C107.137 25.4523 107.016 25.4818 106.918 25.5513C106.82 25.6207 106.753 25.7249 106.729 25.8426L104.708 31.8909L102.984 24.534C102.831 23.8631 102.205 24.1601 102.227 24.248L104.214 32.2648C104.214 32.4737 104.368 32.5397 104.708 32.5397V32.5727ZM114.173 32.5397H114.195C114.349 32.5397 114.47 32.4737 114.47 32.2428V28.9987C114.456 28.7158 114.501 28.433 114.602 28.1685C114.704 27.9041 114.859 27.6637 115.058 27.4629C115.258 27.262 115.497 27.1052 115.761 27.0022C116.024 26.8993 116.306 26.8527 116.589 26.8653C117.797 26.8653 118.456 27.6901 118.456 29.0647V32.2648C118.456 32.4957 118.576 32.5617 118.73 32.5617H118.807C118.961 32.5617 119.081 32.4957 119.081 32.2648V28.9987C119.132 28.6524 119.106 28.2991 119.004 27.9643C118.902 27.6295 118.727 27.3215 118.491 27.0627C118.256 26.8039 117.966 26.6006 117.643 26.4676C117.32 26.3345 116.971 26.2751 116.622 26.2935C116.167 26.2729 115.716 26.387 115.325 26.6218C114.935 26.8565 114.622 27.2013 114.426 27.6131V24.38C114.426 23.8961 114.228 23.7752 114.019 23.7752C113.944 23.7708 113.87 23.7943 113.811 23.8412V32.2428C113.811 32.4737 113.921 32.5397 114.085 32.5397H114.173ZM121.234 24.7759C121.292 24.7849 121.352 24.7801 121.409 24.7619C121.466 24.7437 121.517 24.7126 121.56 24.671C121.602 24.6294 121.635 24.5785 121.654 24.5223C121.674 24.4661 121.68 24.4061 121.673 24.347C121.673 24.0611 121.541 23.9181 121.266 23.9181C121.208 23.9092 121.148 23.914 121.091 23.9322C121.034 23.9504 120.983 23.9815 120.94 24.023C120.898 24.0646 120.865 24.1155 120.846 24.1717C120.826 24.2279 120.82 24.2879 120.827 24.347C120.827 24.6329 120.97 24.7759 121.234 24.7759ZM121.234 32.5397H121.299C121.464 32.5397 121.585 32.4737 121.585 32.2428V26.6784C121.585 26.4474 121.464 26.3814 121.299 26.3814H121.234C121.069 26.3814 120.97 26.4474 120.97 26.6784V32.2428C120.97 32.4737 121.069 32.5397 121.234 32.5397ZM125.494 32.6277C125.677 32.641 125.862 32.6166 126.035 32.5561C126.209 32.4956 126.368 32.4002 126.504 32.2758C126.563 32.2289 126.612 32.1707 126.647 32.1046C126.683 32.0384 126.705 31.9658 126.713 31.8909C126.713 31.638 126.537 31.561 126.504 31.572C126.402 31.7407 126.256 31.8787 126.082 31.9716C125.908 32.0644 125.713 32.1087 125.516 32.0998C124.802 32.0998 124.506 31.6819 124.506 30.6812V26.9753H126.262C126.493 26.9753 126.57 26.8763 126.57 26.7223V26.6674C126.57 26.5024 126.493 26.4144 126.262 26.4144H124.506V25.2927C124.506 25.0508 124.407 24.9848 124.253 24.9848H124.176C124.023 24.9848 123.902 25.0508 123.902 25.2927V26.3924H123.155C122.924 26.3924 122.859 26.4804 122.859 26.6454V26.7003C122.859 26.8543 122.924 26.9533 123.155 26.9533H123.902V30.7912C123.902 32.0778 124.418 32.6717 125.494 32.6717V32.6277ZM128.151 29.0647C128.203 28.4666 128.476 27.9095 128.917 27.5027C129.358 27.0958 129.934 26.8685 130.534 26.8653C130.826 26.8494 131.119 26.8954 131.393 27.0004C131.666 27.1053 131.915 27.2667 132.122 27.4742C132.329 27.6817 132.49 27.9306 132.595 28.2046C132.7 28.4786 132.746 28.7717 132.73 29.0647H128.151ZM128.151 29.5925H133.092C133.29 29.5925 133.367 29.5925 133.367 29.3726V29.3066C133.399 28.9234 133.351 28.5377 133.224 28.1745C133.098 27.8113 132.897 27.4788 132.634 27.1987C132.371 26.9186 132.052 26.6971 131.697 26.5487C131.343 26.4003 130.962 26.3283 130.578 26.3375C130.166 26.3369 129.759 26.4202 129.381 26.5823C129.003 26.7444 128.662 26.9818 128.379 27.2801C128.095 27.5785 127.875 27.9315 127.732 28.3177C127.589 28.7039 127.526 29.1152 127.547 29.5265C127.532 29.9399 127.602 30.3519 127.753 30.7367C127.905 31.1215 128.134 31.4706 128.427 31.762C128.72 32.0535 129.071 32.2809 129.456 32.4299C129.841 32.5789 130.253 32.6462 130.666 32.6277C131.465 32.6758 132.252 32.4117 132.862 31.8909C133.062 31.7199 133.2 31.4882 133.257 31.2311C133.254 31.1357 133.215 31.045 133.148 30.9775C133.08 30.9101 132.99 30.8709 132.895 30.8682C132.699 31.2742 132.383 31.61 131.99 31.8303C131.597 32.0506 131.146 32.1447 130.699 32.0998C130.365 32.1075 130.033 32.0468 129.724 31.9215C129.414 31.7961 129.134 31.6087 128.899 31.3708C128.665 31.1329 128.481 30.8495 128.36 30.5381C128.239 30.2266 128.183 29.8936 128.195 29.5595L128.151 29.5925ZM135.146 32.5507H135.222C135.376 32.5507 135.486 32.4847 135.486 32.2538V28.9987C135.472 28.7158 135.517 28.433 135.618 28.1685C135.72 27.9041 135.875 27.6637 136.075 27.4629C136.274 27.262 136.513 27.1052 136.777 27.0022C137.04 26.8993 137.323 26.8527 137.605 26.8653C138.813 26.8653 139.472 27.6901 139.472 29.0647V32.2648C139.472 32.4957 139.593 32.5617 139.746 32.5617H139.823C139.977 32.5617 140.098 32.4957 140.098 32.2648V28.9987C140.149 28.6524 140.122 28.2991 140.02 27.9643C139.918 27.6295 139.743 27.3215 139.508 27.0627C139.272 26.8039 138.982 26.6006 138.659 26.4676C138.336 26.3345 137.987 26.2751 137.638 26.2935C137.183 26.2729 136.732 26.387 136.341 26.6218C135.951 26.8565 135.638 27.2013 135.442 27.6131V24.38C135.442 23.8961 135.255 23.7752 135.036 23.7752C134.96 23.7708 134.886 23.7943 134.827 23.8412V32.2428C134.827 32.4737 134.948 32.5397 135.102 32.5397L135.146 32.5507ZM144.589 32.6277C145.216 32.6386 145.832 32.4624 146.359 32.1216C146.886 31.7808 147.3 31.2907 147.548 30.7137C147.796 30.1366 147.867 29.4988 147.752 28.8811C147.637 28.2635 147.342 27.694 146.903 27.2452C146.464 26.7963 145.902 26.4883 145.288 26.3603C144.673 26.2324 144.035 26.2902 143.454 26.5265C142.873 26.7629 142.375 27.167 142.024 27.6875C141.672 28.208 141.483 28.8213 141.481 29.4496C141.46 29.867 141.525 30.2843 141.673 30.6752C141.82 31.0661 142.047 31.4221 142.339 31.7208C142.631 32.0194 142.982 32.2542 143.369 32.4103C143.756 32.5664 144.171 32.6404 144.589 32.6277ZM144.589 32.0888C144.066 32.1042 143.55 31.9626 143.108 31.6823C142.666 31.402 142.318 30.9957 142.108 30.5157C141.898 30.0357 141.836 29.5039 141.93 28.9885C142.025 28.473 142.271 27.9976 142.636 27.6232C143.002 27.2487 143.472 26.9924 143.984 26.8871C144.497 26.7818 145.029 26.8323 145.513 27.0321C145.996 27.232 146.409 27.5721 146.699 28.0087C146.988 28.4453 147.14 28.9586 147.136 29.4826C147.151 29.8186 147.098 30.1541 146.98 30.4691C146.862 30.784 146.682 31.0718 146.45 31.3153C146.218 31.5587 145.939 31.7527 145.631 31.8856C145.322 32.0186 144.99 32.0877 144.654 32.0888H144.589ZM149.519 32.5397H149.585C149.738 32.5397 149.848 32.4627 149.848 32.2428V29.6145C149.848 27.965 150.364 26.8763 151.462 26.8763C151.726 26.8706 151.984 26.9604 152.187 27.1292C152.187 27.1292 152.374 27.0303 152.374 26.7993C152.374 26.5684 152 26.2935 151.506 26.2935C151.095 26.2881 150.697 26.4359 150.388 26.7082C150.08 26.9805 149.883 27.3579 149.837 27.767V26.9973C149.837 26.4914 149.662 26.3814 149.442 26.3814C149.222 26.3814 149.233 26.3814 149.233 26.4474V32.2428C149.228 32.282 149.232 32.3219 149.244 32.3595C149.257 32.3971 149.277 32.4314 149.305 32.46C149.332 32.4885 149.366 32.5104 149.403 32.5242C149.44 32.538 149.479 32.5433 149.519 32.5397ZM153.845 32.5397H153.922C154.076 32.5397 154.185 32.4737 154.185 32.2428V28.2839C154.363 27.8508 154.668 27.4826 155.061 27.229C155.453 26.9753 155.914 26.8484 156.381 26.8653C157.567 26.8653 158.226 27.7011 158.226 29.0647V32.2648C158.226 32.4957 158.336 32.5617 158.49 32.5617H158.567C158.72 32.5617 158.841 32.4957 158.841 32.2648V28.9987C158.841 27.3712 158.017 26.2935 156.403 26.2935C155.958 26.2826 155.518 26.3936 155.131 26.6145C154.744 26.8354 154.425 27.1579 154.207 27.5471V26.9973C154.207 26.4914 154.032 26.3814 153.812 26.3814C153.592 26.3814 153.603 26.3814 153.603 26.4474V32.2428C153.603 32.4737 153.724 32.5397 153.878 32.5397H153.845ZM160.905 29.0207C160.96 28.4235 161.234 27.8679 161.674 27.4615C162.114 27.0552 162.689 26.827 163.288 26.8213C163.58 26.8089 163.871 26.8572 164.143 26.9634C164.415 27.0695 164.662 27.231 164.869 27.4378C165.075 27.6446 165.236 27.892 165.342 28.1645C165.448 28.437 165.497 28.7285 165.484 29.0207H160.905ZM160.905 29.5485H165.846C166.033 29.5485 166.11 29.5485 166.11 29.3286V29.2626C166.142 28.8794 166.094 28.4937 165.968 28.1305C165.841 27.7673 165.64 27.4348 165.377 27.1547C165.114 26.8746 164.795 26.6531 164.441 26.5047C164.086 26.3563 163.705 26.2844 163.321 26.2935C162.911 26.2944 162.505 26.3788 162.128 26.5416C161.751 26.7043 161.411 26.9419 161.129 27.2401C160.847 27.5383 160.628 27.8908 160.485 28.2763C160.343 28.6618 160.281 29.0721 160.301 29.4826C160.28 29.8985 160.345 30.3144 160.493 30.7037C160.641 31.0929 160.868 31.4469 161.161 31.743C161.453 32.0391 161.805 32.2707 162.192 32.4231C162.579 32.5754 162.993 32.6451 163.409 32.6277C164.191 32.6542 164.954 32.3875 165.55 31.8799C165.744 31.7058 165.879 31.475 165.934 31.2201C165.932 31.1247 165.892 31.034 165.825 30.9665C165.758 30.8991 165.667 30.8599 165.572 30.8572C165.376 31.2632 165.06 31.599 164.668 31.8193C164.275 32.0397 163.824 32.1337 163.376 32.0888C163.042 32.0965 162.71 32.0358 162.401 31.9105C162.092 31.7851 161.811 31.5977 161.577 31.3598C161.342 31.1219 161.159 30.8385 161.038 30.5271C160.917 30.2156 160.86 29.8826 160.872 29.5485" fill="white"/>
<path d="M102.951 20.806H105.674C107.673 20.806 108.661 20.0692 108.661 18.5187C108.661 17.419 108.024 16.6932 106.684 16.4623C107.134 16.4026 107.545 16.1787 107.839 15.8335C108.133 15.4883 108.289 15.0463 108.277 14.5928C108.277 13.2292 107.354 12.4704 105.586 12.4704H102.951C102.901 12.4704 102.852 12.4804 102.806 12.4999C102.76 12.5193 102.718 12.5479 102.683 12.5837C102.648 12.6196 102.621 12.6622 102.603 12.7088C102.585 12.7554 102.576 12.8053 102.578 12.8553V20.4101C102.575 20.4611 102.582 20.512 102.6 20.56C102.617 20.6079 102.644 20.6518 102.679 20.6889C102.714 20.7259 102.756 20.7555 102.803 20.7756C102.85 20.7958 102.9 20.8061 102.951 20.806ZM103.215 16.2643V13.0532H105.586C106.948 13.0532 107.607 13.5921 107.607 14.6368C107.607 15.6815 106.882 16.2643 105.619 16.2643H103.215ZM103.215 20.2232V16.8251H105.674C107.211 16.8251 107.991 17.364 107.991 18.4967C107.991 19.6294 107.266 20.2232 105.663 20.2232H103.215ZM110.451 17.309C110.503 16.7109 110.776 16.1539 111.217 15.747C111.657 15.3402 112.234 15.1129 112.833 15.1096C113.121 15.1049 113.406 15.159 113.671 15.2685C113.937 15.3781 114.177 15.5408 114.378 15.7468C114.578 15.9527 114.735 16.1975 114.837 16.4662C114.94 16.7348 114.987 17.0216 114.975 17.309H110.451ZM110.451 17.8369H115.392C115.578 17.8369 115.666 17.8369 115.666 17.6169C115.7 17.2329 115.653 16.8459 115.528 16.4814C115.402 16.1169 115.201 15.783 114.938 15.5017C114.675 15.2203 114.355 14.9979 114 14.8488C113.645 14.6998 113.262 14.6275 112.877 14.6368C112.466 14.6362 112.059 14.7195 111.681 14.8816C111.303 15.0437 110.962 15.2811 110.678 15.5795C110.395 15.8778 110.175 16.2308 110.032 16.617C109.889 17.0032 109.826 17.4145 109.847 17.8259C109.836 18.2317 109.908 18.6354 110.058 19.0124C110.209 19.3894 110.434 19.7319 110.721 20.0189C111.007 20.306 111.349 20.5316 111.726 20.682C112.102 20.8325 112.505 20.9046 112.91 20.894C113.713 20.9373 114.501 20.665 115.106 20.1352C115.309 19.9683 115.445 19.7343 115.491 19.4754C115.488 19.3811 115.448 19.2916 115.381 19.2259C115.313 19.1602 115.222 19.1235 115.128 19.1235C114.932 19.5295 114.617 19.8654 114.224 20.0857C113.831 20.306 113.38 20.4001 112.932 20.3552C112.598 20.3629 112.265 20.3019 111.955 20.1759C111.645 20.0499 111.363 19.8615 111.129 19.6224C110.894 19.3833 110.711 19.0986 110.591 18.7858C110.47 18.473 110.415 18.1388 110.429 17.8039L110.451 17.8369ZM119.037 20.894C119.223 20.9074 119.41 20.8821 119.586 20.8196C119.762 20.7572 119.922 20.6589 120.058 20.5311C120.119 20.4856 120.168 20.4277 120.204 20.3613C120.24 20.2949 120.262 20.2216 120.267 20.1462C120.267 19.9043 120.08 19.8273 120.058 19.8383C119.956 20.007 119.81 20.145 119.637 20.2379C119.463 20.3308 119.267 20.3751 119.07 20.3661C118.346 20.3661 118.06 19.9483 118.06 18.9366V15.2636H119.817C120.047 15.2636 120.124 15.1756 120.124 15.0217V14.9557C120.124 14.8017 120.047 14.7137 119.817 14.7137H118.06V13.5261C118.06 13.2951 117.95 13.2182 117.796 13.2182H117.72C117.566 13.2182 117.456 13.2951 117.456 13.5261V14.7137H116.709C116.479 14.7137 116.413 14.8017 116.413 14.9557V15.0217C116.413 15.1756 116.479 15.2636 116.709 15.2636H117.489V19.0355C117.489 20.3222 117.994 20.927 119.07 20.927L119.037 20.894ZM121.837 20.839H121.881C122.046 20.839 122.156 20.762 122.156 20.5421V12.6793C122.156 12.1955 121.969 12.0745 121.749 12.0745C121.674 12.0701 121.6 12.0936 121.541 12.1405V20.5421C121.541 20.762 121.64 20.839 121.815 20.839H121.837ZM124.341 17.309C124.395 16.7119 124.669 16.1562 125.109 15.7499C125.55 15.3435 126.125 15.1153 126.723 15.1096C127.011 15.1033 127.297 15.1562 127.563 15.2652C127.829 15.3742 128.071 15.5369 128.271 15.7432C128.472 15.9495 128.628 16.195 128.731 16.4643C128.833 16.7337 128.878 17.0212 128.865 17.309H124.341ZM124.341 17.8369H129.282C129.48 17.8369 129.556 17.8369 129.556 17.6169C129.591 17.2329 129.543 16.8459 129.418 16.4814C129.292 16.1169 129.091 15.783 128.828 15.5017C128.565 15.2203 128.245 14.9979 127.89 14.8488C127.535 14.6998 127.152 14.6275 126.767 14.6368C126.356 14.6362 125.949 14.7195 125.571 14.8816C125.193 15.0437 124.852 15.2811 124.568 15.5795C124.285 15.8778 124.065 16.2308 123.922 16.617C123.779 17.0032 123.716 17.4145 123.737 17.8259C123.726 18.2307 123.798 18.6335 123.948 19.0098C124.097 19.386 124.321 19.728 124.607 20.0149C124.892 20.3017 125.233 20.5276 125.608 20.6787C125.983 20.8298 126.385 20.9031 126.789 20.894C127.593 20.942 128.382 20.6692 128.985 20.1352C129.188 19.9683 129.324 19.7343 129.37 19.4754C129.37 19.1895 129.051 19.0905 129.018 19.1235C128.822 19.5295 128.507 19.8654 128.114 20.0857C127.721 20.306 127.27 20.4001 126.822 20.3552C126.488 20.3629 126.155 20.3019 125.845 20.1759C125.535 20.0499 125.254 19.8615 125.019 19.6224C124.784 19.3833 124.601 19.0986 124.481 18.7858C124.36 18.473 124.305 18.1388 124.319 17.8039" fill="white"/>
<path d="M135.782 14.8018C135.782 14.6919 135.288 14.362 135.025 15.0658L133.147 20.0584L131.017 15.0328C130.742 14.373 130.259 14.6699 130.259 14.8128L132.587 20.1793C132.609 20.2537 132.656 20.3182 132.72 20.3622C132.784 20.4062 132.861 20.427 132.938 20.4213L132.411 21.8618C132.06 22.8076 131.643 23.1045 130.962 22.8516C130.776 22.7905 130.61 22.6808 130.481 22.5339C130.351 22.387 130.263 22.2081 130.226 22.0158C130.226 22.0158 130.007 22.0158 129.919 22.2357C129.9 22.308 129.896 22.3832 129.908 22.457C129.919 22.5307 129.945 22.6013 129.985 22.6646C130.067 22.8308 130.182 22.9782 130.324 23.0974C130.466 23.2167 130.631 23.3052 130.808 23.3574C131.818 23.7313 132.51 23.3574 133.004 22.1368L133.52 20.7402L135.782 14.8018Z" fill="white"/>
</g>
<defs>
<clipPath id="clip0_334_2662">
<rect width="166" height="46" fill="white"/>
</clipPath>
</defs>
</svg>
