<svg width="59" height="70" viewBox="0 0 59 70" fill="none" xmlns="http://www.w3.org/2000/svg">
<g clip-path="url(#clip0_320_219)">
<path d="M49.2809 59.5627C37.8689 52.8362 32.8898 41.4777 32.8233 41.3215C32.6994 41.0612 32.4795 40.8587 32.2094 40.7564C31.9393 40.654 31.64 40.6598 31.3741 40.7725C31.1081 40.8852 30.8962 41.0961 30.7826 41.361C30.669 41.6259 30.6624 41.9244 30.7644 42.194C30.9738 42.6879 36.0487 54.3588 48.1438 61.4835C48.3992 61.6339 48.704 61.6769 48.9912 61.6032C49.1334 61.5667 49.2671 61.5026 49.3844 61.4145C49.5018 61.3265 49.6006 61.2163 49.6752 61.0902C49.7499 60.9641 49.799 60.8245 49.8195 60.6795C49.8401 60.5345 49.8319 60.3868 49.7953 60.245C49.7586 60.1032 49.6944 59.9699 49.6061 59.8529C49.5179 59.7358 49.4074 59.6372 49.2809 59.5627Z" fill="white"/>
<path d="M46.1672 62.5317C40.0844 58.5008 37.1408 55.2098 34.3656 51.2102C34.3538 51.1926 34.3402 51.177 34.3265 51.1594L34.2971 51.1223L34.26 51.0833L34.2208 51.0423L34.1915 51.0169L34.1386 50.972L34.1054 50.9486C34.0879 50.9345 34.0695 50.9215 34.0505 50.9096C33.96 50.8529 33.8618 50.8095 33.7589 50.7807L33.6884 50.7651H33.6493H33.5984H33.5377H33.3968H33.3068H33.2951L33.1952 50.7827C33.0605 50.8137 32.933 50.87 32.8194 50.9486C32.6348 51.0747 32.4928 51.2537 32.4123 51.462C32.4087 51.4759 32.4041 51.4896 32.3987 51.503L32.3791 51.5635C32.3743 51.5795 32.3703 51.5958 32.3673 51.6123C32.3673 51.6318 32.3576 51.6513 32.3537 51.6709V51.7138C32.3537 51.7372 32.3537 51.7587 32.3537 51.7821C32.3537 51.8797 31.5375 61.5069 17.8062 65.3289C17.5471 65.4027 17.3233 65.5673 17.1761 65.7924C17.0288 66.0175 16.9679 66.288 17.0045 66.5543C17.0412 66.8206 17.173 67.0648 17.3756 67.242C17.5782 67.4192 17.8381 67.5175 18.1076 67.519C18.2095 67.5185 18.3108 67.5048 18.409 67.478C26.3159 65.2762 30.2869 61.2199 32.2245 58.2041C32.9704 57.0462 33.5694 55.8005 34.0075 54.4954C36.5518 57.8137 39.648 60.8901 44.9518 64.4056C45.074 64.4869 45.2111 64.5434 45.3553 64.5717C45.4995 64.6 45.6479 64.5997 45.7919 64.5707C45.9359 64.5416 46.0728 64.4845 46.1946 64.4026C46.3165 64.3207 46.4209 64.2156 46.5019 64.0933C46.5844 63.9693 46.6412 63.8302 46.6691 63.6841C46.6969 63.5379 46.6952 63.3877 46.664 63.2422C46.6329 63.0968 46.5728 62.959 46.4875 62.8369C46.4022 62.7149 46.2933 62.6111 46.1672 62.5317Z" fill="white"/>
<path d="M41.9476 64.5813C39.188 62.6898 36.0448 60.3201 35.5634 59.6272C35.4582 59.4755 35.317 59.3523 35.1523 59.2685C34.9876 59.1847 34.8046 59.1429 34.6198 59.147C34.4349 59.1511 34.254 59.2008 34.0931 59.2918C33.9323 59.3827 33.7967 59.512 33.6983 59.6682C33.667 59.717 30.5923 64.5325 26.3101 66.6036C26.1779 66.6676 26.0598 66.757 25.9623 66.8667C25.8648 66.9763 25.79 67.104 25.742 67.2425C25.694 67.381 25.6739 67.5275 25.6827 67.6738C25.6915 67.82 25.7291 67.9631 25.7933 68.0949C25.8576 68.2266 25.9473 68.3445 26.0572 68.4417C26.1671 68.5389 26.2951 68.6135 26.434 68.6614C26.5728 68.7092 26.7198 68.7294 26.8664 68.7206C27.0131 68.7118 27.1565 68.6743 27.2886 68.6102C30.8115 66.9022 33.5221 63.7088 34.7962 61.9988C36.6144 63.6092 39.8985 65.8813 40.6833 66.4201C40.9278 66.5875 41.2289 66.6513 41.5205 66.5973C41.8121 66.5433 42.0703 66.376 42.2382 66.1322C42.4061 65.8883 42.4701 65.5879 42.416 65.2971C42.3618 65.0063 42.194 64.7488 41.9495 64.5813H41.9476Z" fill="white"/>
<path d="M34.8406 65.5611C34.3259 66.0335 32.7485 67.3667 31.6505 67.8723C31.5114 67.9301 31.3855 68.0154 31.2802 68.123C31.175 68.2305 31.0926 68.3582 31.038 68.4983C30.9834 68.6384 30.9577 68.788 30.9625 68.9383C30.9673 69.0885 31.0025 69.2362 31.0659 69.3726C31.1293 69.5089 31.2197 69.6311 31.3315 69.7318C31.4434 69.8324 31.5746 69.9096 31.717 69.9585C31.8595 70.0074 32.0105 70.0271 32.1608 70.0165C32.3112 70.0058 32.4578 69.965 32.5919 69.8965C34.2301 69.1391 36.2674 67.2847 36.3535 67.2047C36.4688 67.1076 36.5632 66.9882 36.6311 66.8538C36.699 66.7193 36.7389 66.5726 36.7485 66.4224C36.758 66.2722 36.737 66.1216 36.6867 65.9797C36.6365 65.8377 36.5579 65.7074 36.4559 65.5966C36.3538 65.4857 36.2304 65.3965 36.0929 65.3345C35.9554 65.2724 35.8068 65.2387 35.6559 65.2354C35.505 65.2321 35.355 65.2592 35.2149 65.3152C35.0748 65.3712 34.9475 65.4548 34.8406 65.5611Z" fill="white"/>
<path d="M29.6589 55.0557C31.7022 50.9565 31.4066 46.7168 30.4183 45.2372C29.9671 44.4791 29.5574 43.6971 29.1911 42.8948C29.0367 42.5701 28.9505 42.2173 28.9377 41.8582C28.9249 41.499 28.9858 41.141 29.1168 40.8062C29.3986 40.1172 30.0151 39.5686 30.8978 39.2212C32.2971 38.6707 33.5067 38.8757 34.8649 41.6612C36.1449 44.2846 38.9377 47.4254 39.0571 47.5561C39.1548 47.6655 39.2731 47.7545 39.4052 47.8183C39.5374 47.882 39.6809 47.9191 39.8274 47.9276C39.974 47.936 40.1208 47.9156 40.2595 47.8674C40.3981 47.8192 40.5259 47.7443 40.6355 47.6469C40.7451 47.5495 40.8344 47.4315 40.8983 47.2997C40.9622 47.1678 40.9995 47.0248 41.0079 46.8786C41.0164 46.7324 40.9959 46.586 40.9476 46.4477C40.8994 46.3094 40.8242 46.182 40.7265 46.0726C40.6991 46.0434 38.0198 43.0295 36.8768 40.6852C35.1878 37.2243 32.8999 36.0336 30.0758 37.1462C28.2282 37.8743 27.4082 39.0787 27.0461 39.961C26.8002 40.5745 26.6824 41.2317 26.6999 41.8922C26.7174 42.5527 26.8698 43.2028 27.1479 43.8025C27.5493 44.6858 27.9988 45.5466 28.4944 46.381C28.514 46.4165 28.5363 46.4504 28.561 46.4826C28.9524 47.0252 29.4632 50.449 27.6568 54.0641C25.8053 57.7728 21.2804 62.2155 10.2382 62.3502C9.94963 62.3639 9.67757 62.4883 9.47885 62.6974C9.28012 62.9066 9.17013 63.1842 9.1719 63.4723C9.17367 63.7604 9.28703 64.0367 9.48831 64.2434C9.68959 64.4501 9.96315 64.5712 10.2519 64.5813H10.2656C22.4351 64.4291 27.5295 59.3168 29.6589 55.0557Z" fill="white"/>
<path d="M53.6079 57.3649C47.9322 54.5677 42.8005 49.1666 42.7496 49.1041C42.5467 48.8885 42.2661 48.7621 41.9697 48.7528C41.6734 48.7434 41.3854 48.8519 41.1692 49.0543C40.953 49.2567 40.8263 49.5365 40.817 49.8321C40.8076 50.1277 40.9164 50.4149 41.1193 50.6305C41.3405 50.8648 46.5758 56.385 52.6155 59.3637C52.7471 59.4287 52.8903 59.4672 53.0368 59.477C53.1833 59.4868 53.3304 59.4678 53.4695 59.4209C53.6086 59.374 53.7371 59.3003 53.8476 59.2039C53.9582 59.1075 54.0486 58.9904 54.1138 58.8591C54.1789 58.7279 54.2176 58.5851 54.2274 58.439C54.2372 58.2929 54.2181 58.1462 54.1711 58.0075C54.1241 57.8687 54.0502 57.7406 53.9535 57.6303C53.8569 57.5201 53.7395 57.4299 53.6079 57.3649Z" fill="white"/>
<path d="M22.2542 57.1968C22.3691 57.1057 22.4649 56.9929 22.536 56.8649C22.6072 56.7368 22.6524 56.5961 22.6691 56.4506C22.6857 56.3051 22.6734 56.1578 22.6329 56.0171C22.5925 55.8764 22.5247 55.745 22.4333 55.6304C22.3419 55.5158 22.2288 55.4203 22.1005 55.3493C21.9721 55.2783 21.831 55.2332 21.6852 55.2167C21.5393 55.2001 21.3915 55.2123 21.2504 55.2526C21.1093 55.293 20.9776 55.3607 20.8627 55.4518C17.1128 58.4266 9.77748 58.1845 7.35845 58.0967C7.06206 58.0866 6.77379 58.1944 6.55706 58.3962C6.34032 58.5981 6.21292 58.8776 6.2028 59.1732C6.19268 59.4688 6.30064 59.7563 6.50306 59.9725C6.70548 60.1887 6.98571 60.3158 7.2821 60.3259C7.96514 60.3493 8.69321 60.3649 9.45062 60.3649C13.7231 60.3649 18.9095 59.8515 22.2542 57.1968Z" fill="white"/>
<path d="M56.0032 54.3472C55.8936 54.2808 45.0433 47.7358 41.2895 40.1309C41.0507 39.436 39.3578 34.8918 35.4748 33.1389C33.3102 32.1629 30.9088 32.2312 28.3273 33.3516C27.0039 33.9877 25.8132 34.8679 24.8181 35.9458C22.6653 38.3155 22.1055 41.1693 23.2152 44.1988V44.2203C24.9532 48.9655 25.6049 50.7419 22.9706 53.5469C22.7798 53.7649 22.6813 54.0484 22.6959 54.3375C22.7106 54.6266 22.8374 54.8987 23.0493 55.0965C23.2613 55.2942 23.5419 55.4021 23.8321 55.3974C24.1223 55.3927 24.3994 55.2758 24.6048 55.0713C28.1766 51.263 27.1002 48.3233 25.3153 43.4551V43.4317C23.3581 38.1106 29.0005 35.4949 29.2295 35.3915C31.1867 34.5404 32.9834 34.4662 34.5452 35.167C37.7588 36.6115 39.1758 40.8551 39.1895 40.8961C39.2053 40.9456 39.2249 40.9939 39.2481 41.0405C43.2544 49.2661 54.3847 55.979 54.8563 56.2659C55.1107 56.4179 55.4152 56.4629 55.7027 56.3909C55.9903 56.319 56.2374 56.1361 56.3898 55.8824C56.5421 55.6287 56.5872 55.3251 56.515 55.0383C56.4429 54.7515 56.2595 54.505 56.0052 54.353L56.0032 54.3472Z" fill="white"/>
<path d="M7.34138 55.9731C7.62682 55.9683 7.8996 55.8549 8.10398 55.6561C8.30836 55.4573 8.42884 55.1881 8.44084 54.9036C8.45284 54.6192 8.3554 54.3409 8.16849 54.1257C7.98157 53.9104 7.71934 53.7746 7.43532 53.7459C6.89124 53.699 6.32168 53.6405 5.74432 53.5722C5.59531 53.5481 5.44294 53.5544 5.29642 53.5906C5.1499 53.6269 5.01223 53.6923 4.89171 53.7829C4.77118 53.8736 4.67028 53.9876 4.59508 54.1181C4.51987 54.2487 4.47195 54.393 4.45412 54.5425C4.43629 54.692 4.44898 54.8436 4.49139 54.9881C4.5338 55.1326 4.60502 55.267 4.70087 55.3833C4.79671 55.4996 4.91519 55.5954 5.0491 55.6649C5.18301 55.7344 5.32958 55.7761 5.48009 55.7877C6.08289 55.8599 6.6759 55.9204 7.24152 55.9692L7.34138 55.9731Z" fill="white"/>
<path d="M32.8548 30.8588C35.3697 31.2258 39.9103 32.5668 42.073 37.4077C45.498 45.079 53.8158 50.9428 54.174 51.1887C54.2943 51.2726 54.4299 51.3322 54.5733 51.3638C54.7166 51.3955 54.8647 51.3986 55.0093 51.3732C55.1539 51.3477 55.292 51.2941 55.4158 51.2154C55.5396 51.1367 55.6467 51.0344 55.7308 50.9145C55.815 50.7945 55.8747 50.6592 55.9065 50.5162C55.9382 50.3732 55.9414 50.2254 55.9158 50.0813C55.8903 49.9371 55.8365 49.7993 55.7576 49.6758C55.6787 49.5524 55.5762 49.4456 55.4559 49.3616C55.3756 49.305 47.2868 43.5974 44.1162 36.5C41.5171 30.6831 36.1506 29.0825 33.1816 28.6511C32.8935 28.6192 32.6041 28.7 32.3745 28.8766C32.1449 29.0531 31.9928 29.3117 31.9505 29.5977C31.9081 29.8838 31.9788 30.1751 32.1474 30.4103C32.3161 30.6456 32.5697 30.8063 32.8548 30.8588Z" fill="white"/>
<path d="M17.2056 50.8726C17.4732 50.7453 17.6791 50.5172 17.778 50.2384C17.8769 49.9596 17.8608 49.6531 17.7331 49.3862C17.6054 49.1193 17.3767 48.914 17.0972 48.8153C16.8177 48.7167 16.5103 48.7328 16.2427 48.8602C16.2036 48.8777 12.2306 50.6774 4.82673 49.5551C4.68151 49.5331 4.53333 49.54 4.39076 49.5751C4.24819 49.6103 4.11402 49.6732 3.9958 49.7601C3.87758 49.847 3.77762 49.9563 3.70175 50.0817C3.62588 50.2071 3.5756 50.3462 3.55363 50.491C3.53165 50.6359 3.53843 50.7836 3.5737 50.9258C3.60896 51.068 3.67204 51.2019 3.75918 51.3198C3.84633 51.4377 3.95587 51.5373 4.08162 51.613C4.20737 51.6887 4.34685 51.7389 4.49206 51.7608C6.16433 52.0169 7.8535 52.1474 9.54537 52.1512C14.4461 52.1571 17.0647 50.941 17.2056 50.8726Z" fill="white"/>
<path d="M15.2086 46.9841C19.1953 46.0355 19.9625 48.0557 20.0369 48.288V48.2685C20.157 48.7236 20.1843 49.198 20.117 49.6638C20.0498 50.1295 19.8894 50.5771 19.6454 50.9798C18.4301 52.9142 15.0951 53.9488 10.2512 53.8883H10.2414C9.9527 53.8984 9.67914 54.0195 9.47785 54.2262C9.27657 54.4329 9.16312 54.7092 9.16135 54.9973C9.15958 55.2854 9.26957 55.5631 9.4683 55.7722C9.66703 55.9813 9.93918 56.1057 10.2277 56.1194H10.6368C17.5748 56.1194 20.3951 53.9722 21.5342 52.1608C22.6732 50.3493 22.6576 48.1495 21.5342 45.9144C19.442 41.7411 21.5126 37.5053 21.5342 37.4663C21.5529 37.4303 21.5693 37.3931 21.5831 37.355C23.37 32.6195 28.255 31.2512 30.2728 30.8842C30.5645 30.8309 30.823 30.6641 30.9915 30.4207C31.16 30.1773 31.2245 29.8771 31.1711 29.5861C31.1176 29.2952 30.9504 29.0373 30.7063 28.8693C30.4623 28.7013 30.1613 28.6368 29.8696 28.6902C27.4858 29.1235 21.7122 30.7573 19.5104 36.5176C19.256 37.0446 17.6609 40.5992 18.708 44.6925C17.6511 44.4466 16.3262 44.4329 14.6881 44.8233C10.0105 45.9359 4.84753 45.9476 1.53604 44.8486C1.39535 44.7972 1.24575 44.7745 1.09607 44.7818C0.946395 44.7891 0.799689 44.8263 0.664696 44.8912C0.529703 44.9561 0.409128 45.0473 0.310155 45.1596C0.211182 45.2718 0.135852 45.4027 0.088543 45.5445C0.0412336 45.6863 0.0229084 45.8361 0.0347407 45.9851C0.0465731 46.1341 0.0882449 46.2792 0.157349 46.4118C0.226453 46.5445 0.321611 46.6619 0.437063 46.7572C0.552516 46.8525 0.685991 46.9237 0.829543 46.9665C4.50897 48.1768 10.1533 48.1885 15.2086 46.9841Z" fill="white"/>
<path d="M2.07875 43.1719C3.82476 43.5979 5.61638 43.8096 7.41387 43.8023C10.253 43.8061 13.073 43.3371 15.7572 42.4145C15.9556 42.3385 16.1282 42.2079 16.255 42.0379C16.3818 41.8679 16.4576 41.6654 16.4735 41.4541C16.4735 41.3838 17.0489 34.4563 21.1941 30.9388C25.4235 27.3491 27.9874 27.0583 32.937 26.785C33.2227 26.7694 33.5241 26.7674 33.8138 26.785C34.1102 26.7964 34.399 26.6899 34.6166 26.4889C34.8343 26.2879 34.963 26.009 34.9744 25.7133C34.9858 25.4177 34.879 25.1297 34.6775 24.9126C34.476 24.6956 34.1963 24.5672 33.8999 24.5558C33.5339 24.5421 33.1679 24.5558 32.8117 24.5656C27.6546 24.8506 24.5056 25.2097 19.7459 29.2503C15.7142 32.6741 14.6025 38.4793 14.3266 40.5503C12.6199 41.0696 7.72115 42.2876 2.62279 41.0188C2.47807 40.9765 2.32628 40.9638 2.17651 40.9815C2.02674 40.9991 1.88209 41.0468 1.75125 41.1216C1.62041 41.1964 1.50613 41.2968 1.41515 41.4168C1.32418 41.5367 1.25838 41.6738 1.22183 41.8197C1.18528 41.9656 1.1787 42.1175 1.20243 42.266C1.22616 42.4145 1.27971 42.5567 1.35992 42.6841C1.44013 42.8115 1.54541 42.9214 1.66926 43.0072C1.79311 43.0931 1.93299 43.153 2.08066 43.1836L2.07875 43.1719Z" fill="white"/>
<path d="M39.2523 25.8696C38.7806 25.6529 38.2972 25.4617 37.8137 25.2957C37.5363 25.2129 37.2375 25.2404 36.98 25.3727C36.7226 25.5049 36.5264 25.7315 36.4329 26.0049C36.3395 26.2783 36.3559 26.5772 36.4787 26.8388C36.6015 27.1004 36.8212 27.3043 37.0916 27.4078C37.5093 27.5503 37.9196 27.7138 38.3207 27.8977C38.5904 28.0209 38.898 28.0323 39.176 27.9292C39.454 27.8262 39.6797 27.6172 39.8032 27.3483C39.9267 27.0793 39.9381 26.7724 39.8348 26.4951C39.7315 26.2178 39.5219 25.9928 39.2523 25.8696Z" fill="white"/>
<path d="M56.385 44.7356C56.3165 44.6829 49.5663 39.4379 47.2589 33.9997C46.1924 31.5191 44.5 29.3564 42.3464 27.7221C42.11 27.5529 41.8169 27.4822 41.5292 27.5248C41.2414 27.5675 40.9816 27.7202 40.8048 27.9506C40.628 28.181 40.548 28.471 40.5818 28.7592C40.6157 29.0474 40.7607 29.3111 40.9862 29.4945C42.8328 30.8928 44.284 32.745 45.1979 34.8702C47.7422 40.8472 54.7214 46.2698 55.0169 46.4982C55.1308 46.6026 55.2653 46.6823 55.4117 46.7322C55.558 46.7822 55.7132 46.8013 55.8674 46.7885C56.0216 46.7756 56.1714 46.731 56.3075 46.6575C56.4435 46.584 56.5628 46.4831 56.6578 46.3613C56.7528 46.2395 56.8214 46.0994 56.8593 45.9498C56.8973 45.8002 56.9038 45.6444 56.8784 45.4921C56.8529 45.3399 56.7961 45.1946 56.7115 45.0654C56.6269 44.9362 56.5164 44.8259 56.3869 44.7414L56.385 44.7356Z" fill="white"/>
<path d="M58.0863 28.4697C56.7672 24.7609 52.9449 20.8843 52.7844 20.7203L52.7159 20.6579C52.0133 20.0586 51.2911 19.4867 50.5631 18.9343C50.3266 18.7556 50.0287 18.678 49.7349 18.7185C49.4411 18.7589 49.1755 18.9142 48.9964 19.15C48.8173 19.3858 48.7395 19.6829 48.78 19.9759C48.8206 20.2689 48.9762 20.5339 49.2127 20.7125C49.8879 21.222 50.5631 21.7627 51.2187 22.321C51.571 22.684 54.8786 26.1351 55.9726 29.2134C56.0493 29.4309 56.1917 29.6192 56.3803 29.7525C56.5689 29.8857 56.7944 29.9572 57.0256 29.9571C57.1529 29.9568 57.2793 29.935 57.3994 29.8927C57.5384 29.8445 57.6664 29.7694 57.7762 29.6717C57.886 29.574 57.9754 29.4557 58.0392 29.3235C58.103 29.1913 58.14 29.0478 58.1481 28.9013C58.1562 28.7548 58.1352 28.6081 58.0863 28.4697Z" fill="white"/>
<path d="M39.9242 15.5904L39.9849 15.608C40.0084 15.608 42.3746 16.2151 45.8563 18.29C46.1104 18.4273 46.4078 18.4612 46.6865 18.3847C46.9651 18.3083 47.2033 18.1273 47.3512 17.8797C47.4991 17.632 47.5453 17.337 47.48 17.0562C47.4148 16.7754 47.2432 16.5307 47.0012 16.3732C43.3961 14.226 40.8929 13.5389 40.5426 13.4452C37.8196 12.5921 34.9932 12.1114 32.1406 12.0164H32.1074C31.8183 12.024 31.5433 12.143 31.3402 12.3483C31.1371 12.5537 31.0215 12.8294 31.0177 13.1178C31.0139 13.4063 31.1222 13.685 31.3198 13.8955C31.5175 14.1061 31.7891 14.2322 32.078 14.2475C34.7422 14.3392 37.3817 14.791 39.9242 15.5904Z" fill="white"/>
<path d="M7.52338 26.7889C7.64115 26.8766 7.77518 26.9403 7.91767 26.9763C8.06016 27.0123 8.20829 27.0199 8.35373 26.9987C8.49917 26.9775 8.63904 26.9278 8.76522 26.8526C8.89141 26.7775 9.00143 26.6782 9.08909 26.5605C12.2029 22.393 18.9453 15.2644 29.1283 14.3431C29.4236 14.3172 29.6966 14.1753 29.8871 13.9487C30.0776 13.7221 30.17 13.4294 30.144 13.1348C30.1181 12.8402 29.9759 12.568 29.7487 12.378C29.5215 12.188 29.2279 12.0958 28.9326 12.1217C17.8845 13.1211 10.6372 20.7612 7.30224 25.2273C7.1243 25.4637 7.04768 25.7609 7.08913 26.0537C7.13059 26.3464 7.28673 26.6108 7.52338 26.7889Z" fill="white"/>
<path d="M5.38566 28.0344C4.88267 28.8562 4.6263 29.3598 4.61456 29.3813C4.48082 29.6448 4.45747 29.9505 4.54957 30.2313C4.64168 30.512 4.84168 30.7448 5.10575 30.8785C5.26184 30.9588 5.43508 31.0003 5.61071 30.9995C5.81727 30.9999 6.01994 30.9432 6.19613 30.8357C6.37233 30.7282 6.51518 30.5741 6.60887 30.3905C6.60887 30.3905 6.84373 29.9337 7.29387 29.1959C7.44959 28.9435 7.49839 28.6398 7.42957 28.3515C7.36075 28.0632 7.17995 27.814 6.92691 27.6587C6.67386 27.5034 6.36935 27.4547 6.08031 27.5233C5.79127 27.5919 5.54138 27.7723 5.38566 28.0247V28.0344Z" fill="white"/>
<path d="M58.7789 21.3332C58.4951 20.9545 58.1918 20.5777 57.9021 20.2088C57.7155 19.979 57.445 19.8325 57.1501 19.8015C56.8552 19.7706 56.56 19.8578 56.3295 20.0439C56.0991 20.23 55.9522 20.4998 55.9212 20.7939C55.8902 21.0881 55.9776 21.3825 56.1642 21.6123C56.4441 21.9578 56.72 22.3131 56.9861 22.6683C57.0716 22.7919 57.1813 22.897 57.3085 22.9773C57.4356 23.0577 57.5777 23.1116 57.7263 23.1359C57.8748 23.1603 58.0267 23.1545 58.1729 23.1189C58.3192 23.0833 58.4568 23.0186 58.5774 22.9288C58.698 22.839 58.7992 22.7258 58.875 22.596C58.9507 22.4663 58.9995 22.3227 59.0183 22.1737C59.0371 22.0248 59.0256 21.8735 58.9845 21.7291C58.9433 21.5847 58.8734 21.45 58.7789 21.3332Z" fill="white"/>
<path d="M20.7436 9.86925C13.968 12.2116 8.65436 15.8404 4.94753 20.6579C4.76586 20.8926 4.68507 21.1898 4.72305 21.4839C4.76104 21.778 4.91464 22.0451 5.15003 22.2263C5.38543 22.4075 5.68337 22.488 5.97828 22.4501C6.27319 22.4122 6.54095 22.259 6.72263 22.0242C10.1574 17.5581 15.1227 14.1812 21.4755 11.9832C33.3397 7.88408 45.5054 10.5895 54.019 19.2232C54.1218 19.3276 54.2442 19.4108 54.3792 19.4681C54.5143 19.5254 54.6594 19.5556 54.8061 19.5569C54.9529 19.5583 55.0984 19.5308 55.2345 19.476C55.3706 19.4213 55.4946 19.3403 55.5993 19.2378C55.704 19.1353 55.7875 19.0131 55.8449 18.8784C55.9023 18.7437 55.9326 18.5991 55.934 18.4527C55.9353 18.3063 55.9078 18.1611 55.8529 18.0254C55.798 17.8897 55.7168 17.766 55.614 17.6616C46.48 8.38771 33.4435 5.4773 20.7436 9.86925Z" fill="white"/>
<path d="M56.6864 36.3888C56.8959 36.3886 57.101 36.3298 57.2785 36.219C57.4561 36.1083 57.599 35.9501 57.691 35.7624C57.7829 35.5748 57.8202 35.3651 57.7987 35.1574C57.7771 34.9496 57.6976 34.7521 57.5691 34.5871C56.0405 32.567 54.6222 30.4662 53.3201 28.2939C51.363 25.0459 45.6051 18.4833 37.7961 16.9002C29.2042 15.1571 22.0763 16.7695 16.0033 21.827L15.9622 21.8622C15.7449 22.0574 10.5996 26.8143 8.82254 30.6461C8.25301 31.8739 7.49167 32.6469 6.56007 32.9436C5.33294 33.3339 4.22716 32.7874 3.91793 32.6117C3.39537 32.3131 2.92372 31.5284 2.71822 30.609C2.48141 29.5452 2.63015 28.497 3.10965 27.804C3.40279 27.3578 3.67324 26.8972 3.91994 26.4239C4.23308 25.8501 4.62247 25.1376 5.10588 24.3529C5.2616 24.101 5.3107 23.7978 5.24225 23.5099C5.1738 23.222 4.99345 22.973 4.74092 22.8177C4.4884 22.6623 4.18434 22.6134 3.89566 22.6817C3.60699 22.75 3.3573 22.9298 3.20158 23.1817C2.68686 24.0171 2.2818 24.7569 1.95496 25.3523C1.68291 25.8501 1.44807 26.2814 1.28171 26.5235C0.422527 27.7396 0.148458 29.4066 0.526186 31.0989C0.872601 32.6469 1.72207 33.9391 2.7985 34.552C3.46294 34.9352 4.1989 35.1789 4.9612 35.2682C5.7235 35.3575 6.49602 35.2905 7.23141 35.0712C8.29805 34.7316 9.79129 33.8512 10.8423 31.5869C12.3825 28.2686 17.1052 23.8415 17.4496 23.5272C22.9629 18.9479 29.4685 17.4975 37.3421 19.0943C44.3878 20.5231 49.6133 26.4923 51.3923 29.4495C52.7393 31.7004 54.2088 33.8762 55.794 35.9672C55.9005 36.1008 56.0363 36.2083 56.191 36.2814C56.3457 36.3545 56.5152 36.3913 56.6864 36.3888Z" fill="white"/>
<path d="M11.6781 39.633C11.9326 39.6325 12.1794 39.5456 12.3779 39.3867C12.5764 39.2278 12.7147 39.0063 12.7702 38.7585C12.7819 38.7019 14.0541 33.1095 17.1836 29.2251C20.0391 25.6803 23.963 23.6053 29.1788 22.885C29.4726 22.8444 29.7382 22.689 29.9171 22.4531C30.0961 22.2171 30.1737 21.92 30.1329 21.627C30.0922 21.3339 29.9365 21.0691 29.6999 20.8906C29.4634 20.7122 29.1654 20.6347 28.8716 20.6754C23.143 21.4562 18.624 23.8727 15.4397 27.8274C11.9776 32.1218 10.6408 38.0266 10.586 38.2764C10.5542 38.4193 10.5511 38.567 10.5766 38.7112C10.6021 38.8553 10.6558 38.9931 10.7347 39.1165C10.8135 39.2399 10.916 39.3467 11.0363 39.4306C11.1565 39.5145 11.2922 39.574 11.4354 39.6057C11.5151 39.6234 11.5964 39.6325 11.6781 39.633Z" fill="white"/>
<path d="M49.5808 34.5539C49.7941 34.9189 49.9918 35.2586 50.1679 35.5592C50.8852 36.7158 51.7039 37.8066 52.6143 38.819C52.7115 38.9288 52.8294 39.0185 52.9613 39.0829C53.0932 39.1473 53.2365 39.1852 53.383 39.1943C53.5296 39.2035 53.6766 39.1838 53.8156 39.1363C53.9545 39.0888 54.0826 39.0145 54.1927 38.9176C54.3029 38.8207 54.3928 38.7031 54.4574 38.5715C54.5219 38.44 54.5599 38.297 54.5691 38.1509C54.5783 38.0047 54.5585 37.8581 54.5109 37.7196C54.4633 37.581 54.3887 37.4532 54.2916 37.3433C53.47 36.4311 52.7313 35.448 52.0839 34.4056C51.9058 34.1128 51.716 33.7868 51.5066 33.4296C49.0523 29.2231 44.4804 21.3976 34.6125 20.3943C34.1895 20.3582 33.7645 20.3497 33.3404 20.3689H32.9959C32.7073 20.3823 32.4352 20.5065 32.2363 20.7155C32.0375 20.9244 31.9272 21.202 31.9287 21.4901C31.9302 21.7782 32.0434 22.0545 32.2445 22.2614C32.4455 22.4682 32.719 22.5895 33.0076 22.6H33.0214H33.3991C33.7252 22.5841 34.0521 22.5887 34.3776 22.6137C43.1319 23.5057 47.33 30.6909 49.5808 34.5539Z" fill="white"/>
<path d="M57.9703 40.8882C57.9703 40.8882 57.2149 40.2812 56.2089 39.313C56.1029 39.2116 55.9778 39.132 55.841 39.0788C55.7041 39.0256 55.5582 38.9999 55.4113 39.0029C55.2645 39.006 55.1197 39.0379 54.9852 39.0968C54.8507 39.1557 54.7292 39.2404 54.6275 39.3462C54.5259 39.4519 54.4461 39.5766 54.3927 39.7131C54.3394 39.8496 54.3136 39.9952 54.3167 40.1416C54.3197 40.2881 54.3517 40.4325 54.4108 40.5666C54.4698 40.7008 54.5548 40.822 54.6608 40.9234C55.7411 41.9579 56.5396 42.6001 56.5729 42.6274C56.8049 42.8046 57.0972 42.8843 57.3873 42.8494C57.6774 42.8145 57.9424 42.6679 58.1256 42.4409C58.3088 42.2138 58.3957 41.9243 58.3678 41.6342C58.3399 41.3441 58.1993 41.0764 57.9762 40.8882H57.9703Z" fill="white"/>
<path d="M20.3248 5.49489C20.0422 5.58471 19.8068 5.78284 19.6707 6.04568C19.5345 6.30851 19.5087 6.61454 19.5987 6.89643C19.6888 7.17831 19.8874 7.41298 20.151 7.54879C20.4145 7.6846 20.7213 7.71042 21.004 7.6206C31.1811 4.38422 41.229 5.92042 51.6998 12.319C51.9528 12.4743 52.2573 12.523 52.5464 12.4544C52.8354 12.3857 53.0853 12.2054 53.241 11.953C53.3967 11.7006 53.4455 11.3969 53.3767 11.1086C53.3079 10.8203 53.1271 10.5711 52.874 10.4158C46.8656 6.74415 40.8161 4.55991 34.8918 3.94699C29.9811 3.44646 25.0196 3.97366 20.3248 5.49489Z" fill="white"/>
<path d="M0.467509 22.397C0.587064 22.4832 0.722504 22.5449 0.866105 22.5787C1.0097 22.6124 1.15861 22.6174 1.30417 22.5934C1.44973 22.5695 1.5891 22.517 1.71423 22.4391C1.83936 22.3611 1.94777 22.2593 2.03322 22.1393C2.69278 21.2199 3.46191 20.2069 4.45222 18.9537C5.61672 17.48 9.97334 12.4165 17.1932 9.10009C17.4626 8.97636 17.6717 8.75096 17.7745 8.47348C17.8772 8.196 17.8653 7.88918 17.7412 7.62049C17.6171 7.35181 17.3912 7.14328 17.113 7.04078C16.8347 6.93829 16.5272 6.9502 16.2578 7.07393C8.58381 10.5992 3.93755 16.0003 2.69672 17.5717C1.68292 18.8541 0.894158 19.8926 0.21503 20.8413C0.0417142 21.081 -0.0290802 21.3795 0.0182648 21.6712C0.0656097 21.963 0.227225 22.224 0.467509 22.397Z" fill="white"/>
<path d="M8.0892 39.4065C8.38014 39.3488 8.63616 39.1782 8.80096 38.9322C8.96576 38.6862 9.02588 38.385 8.96801 38.0948C8.91013 37.8046 8.73903 37.5493 8.49238 37.3849C8.24574 37.2206 7.9437 37.1606 7.65276 37.2184C7.61949 37.2184 4.39018 37.8352 2.04748 36.5215C1.91898 36.4498 1.77757 36.4039 1.6313 36.3867C1.48504 36.3694 1.33681 36.381 1.19506 36.4209C0.90877 36.5014 0.66629 36.6921 0.520952 36.951C0.375613 37.2098 0.339289 37.5156 0.420037 37.8012C0.500784 38.0867 0.691932 38.3285 0.951466 38.4735C2.57589 39.3831 4.43126 39.6037 5.84432 39.6037C6.59705 39.6062 7.34849 39.5402 8.0892 39.4065Z" fill="white"/>
<path d="M4.50372 12.3796C4.78009 12.3803 5.04672 12.278 5.25131 12.0926C5.6036 11.7764 5.96763 11.4621 6.33166 11.1576C6.44423 11.0636 6.53716 10.9483 6.60506 10.8184C6.67297 10.6885 6.71448 10.5466 6.72739 10.4007C6.74029 10.2548 6.72434 10.1077 6.68027 9.968C6.63621 9.82827 6.56493 9.69856 6.47061 9.58628C6.37628 9.474 6.26072 9.38137 6.1305 9.31364C6.00027 9.24591 5.85794 9.20444 5.71164 9.19157C5.56534 9.1787 5.41798 9.19468 5.27788 9.23863C5.13778 9.28258 5.00772 9.35362 4.89515 9.4477C4.50372 9.76977 4.12597 10.1016 3.75412 10.4374C3.58263 10.5876 3.46138 10.7865 3.40665 11.0075C3.35191 11.2285 3.3663 11.4609 3.44793 11.6735C3.52956 11.886 3.67451 12.0686 3.86325 12.1966C4.05199 12.3245 4.2755 12.3918 4.50372 12.3893V12.3796Z" fill="white"/>
<path d="M8.19039 9.42612C8.42199 9.42569 8.64768 9.35338 8.83621 9.21922C12.4843 6.63675 15.3849 5.51046 15.4142 5.51046L15.4553 5.49287C18.0321 4.39164 20.714 3.55324 23.46 2.99044C23.6039 2.96135 23.7407 2.90427 23.8625 2.82245C23.9843 2.74064 24.0888 2.6357 24.17 2.51362C24.2511 2.39154 24.3073 2.25471 24.3355 2.11095C24.3636 1.9672 24.363 1.81933 24.3338 1.67578C24.3047 1.53223 24.2475 1.39582 24.1655 1.27433C24.0834 1.15284 23.9781 1.04865 23.8557 0.967714C23.7333 0.886782 23.5962 0.830688 23.4521 0.802634C23.3079 0.77458 23.1597 0.775112 23.0157 0.804207C20.1287 1.39517 17.3091 2.27612 14.6 3.43354C14.2849 3.55457 11.3101 4.73551 7.54458 7.40191C7.35131 7.53912 7.20666 7.73401 7.13165 7.95846C7.05663 8.18292 7.05508 8.42534 7.12715 8.65076C7.19922 8.87617 7.34118 9.07291 7.53263 9.21262C7.72408 9.35233 7.95508 9.42778 8.1923 9.42807L8.19039 9.42612Z" fill="white"/>
<path d="M30.3257 2.22905H30.3433C35.1994 2.16305 40.0254 2.9977 44.5757 4.69049C44.8539 4.79274 45.1614 4.78057 45.4306 4.65666C45.6998 4.53274 45.9087 4.30723 46.0112 4.02974C46.1138 3.75226 46.1016 3.44553 45.9773 3.17701C45.8531 2.9085 45.6269 2.70022 45.3487 2.59797C40.5402 0.805975 35.4388 -0.0757963 30.3061 -0.00207958C30.0175 0.0122215 29.7457 0.137287 29.5474 0.346951C29.3491 0.556616 29.2397 0.83465 29.2422 1.12286C29.2448 1.41107 29.3589 1.68714 29.5608 1.89331C29.7628 2.09948 30.0369 2.21978 30.3257 2.22905Z" fill="white"/>
<path d="M48.2314 6.23651C49.075 6.62691 49.9186 7.07196 50.7366 7.52677C50.8652 7.59816 51.0065 7.64361 51.1526 7.66051C51.2988 7.67742 51.4467 7.66544 51.5882 7.6253C51.7297 7.58515 51.8619 7.51762 51.9772 7.42652C52.0925 7.33543 52.1886 7.22258 52.2602 7.09441C52.3318 6.96624 52.3774 6.82525 52.3944 6.67952C52.4113 6.53379 52.3993 6.38615 52.359 6.24504C52.3188 6.10393 52.2511 5.97213 52.1598 5.85712C52.0684 5.74212 51.9553 5.64618 51.8267 5.57479C50.9656 5.09655 50.079 4.63979 49.1943 4.2084C49.061 4.1391 48.9151 4.0973 48.7652 4.08549C48.6153 4.07369 48.4645 4.09213 48.3219 4.1397C48.1793 4.18727 48.0478 4.263 47.9352 4.36237C47.8226 4.46175 47.7313 4.58271 47.6666 4.71808C47.6019 4.85344 47.5652 5.00042 47.5587 5.15024C47.5522 5.30006 47.5759 5.44964 47.6286 5.59008C47.6813 5.73052 47.762 5.85892 47.8655 5.96764C47.9691 6.07635 48.0935 6.16314 48.2314 6.22283V6.23651Z" fill="white"/>
</g>
<defs>
<clipPath id="clip0_320_219">
<rect width="59" height="70" fill="white"/>
</clipPath>
</defs>
</svg>
