<svg width="98" height="109" viewBox="0 0 98 109" fill="none" xmlns="http://www.w3.org/2000/svg">
<g clip-path="url(#clip0_303_4313)">
<path d="M75.2294 37.0991H78.16V29.7908L81.0907 17.6069H78.3847L77.4078 21.9744C77.0975 23.3326 76.9079 24.7156 76.8412 26.1073H76.7338C76.7113 24.6882 76.551 23.2746 76.2551 21.8864L75.2099 17.6167H72.3672L75.2294 29.7908V37.0991Z" fill="#1D1D1B"/>
<path d="M61.5035 37.5283C63.9359 37.5283 65.2156 36.2581 65.2156 33.796V31.2263C65.2161 30.1595 64.8506 29.1249 64.1802 28.2952L61.0444 23.9668C60.7352 23.3963 60.6026 22.7467 60.6634 22.1006V20.7035C60.6634 19.9414 60.8294 19.531 61.5035 19.531C62.1775 19.531 62.3534 19.9414 62.3534 20.7035V24.8168H65.2156V20.9086C65.2156 18.4465 63.9359 17.1665 61.5035 17.1665C59.071 17.1665 57.8109 18.4367 57.8109 20.9086V23.0191C57.7583 23.9957 58.0409 24.9609 58.612 25.7548L61.8747 30.3567C62.1873 30.7887 62.3549 31.3086 62.3534 31.8419V33.8644C62.3534 34.6265 62.1677 35.0661 61.5035 35.0661C60.8392 35.0661 60.6731 34.6265 60.6731 33.8644V29.4872H57.8109V33.7667C57.8109 36.2288 59.0613 37.499 61.5035 37.499" fill="#1D1D1B"/>
<path d="M71.5655 37.2355L71.673 34.5486L68.1953 34.4118L68.4786 27.7288L71.8683 27.8753L71.9856 25.3057L68.586 25.1591L68.7912 20.2641L72.2689 20.4106L72.3763 17.7628L66.0364 17.4893L65.2256 36.9619L71.5655 37.2355Z" fill="#1D1D1B"/>
<path d="M51.3643 37.1867L50.7 24.9051C50.7 24.485 50.5633 22.8533 50.3777 20.0199H50.5633C50.7977 21.5832 51.1689 23.674 51.6476 26.3609L53.6014 37.0401L57.8507 36.8349L56.8739 17.3721L54.5001 17.4893L55.0764 27.807C55.0764 28.403 55.2425 30.6209 55.5063 34.5096H55.3499C54.8615 30.9531 54.3731 27.9438 53.9237 25.5011L52.4682 17.587L48.1113 17.802L49.0882 37.2551L51.3643 37.1867Z" fill="#1D1D1B"/>
<path d="M43.0314 27.9243H43.1388C44.1841 28.0024 44.6921 28.3933 44.6237 29.2531L44.3208 33.4935C44.3208 34.0015 44.3209 34.2751 44.2622 34.3533C44.1446 35.2843 44.2043 36.2291 44.4381 37.1379L47.4566 37.3528C47.1189 36.1857 47.0323 34.9603 47.2026 33.7573L47.4859 29.7904C47.6129 28.0317 46.7435 27.0742 44.8483 26.9081V26.8593C46.8705 26.6834 47.779 25.7943 47.906 23.7718L48.072 21.505C48.2478 18.994 47.1538 17.8606 44.3013 17.5968L40.9116 17.3525L39.5146 36.7861L42.3769 36.9913L43.0314 27.9243ZM43.6175 19.7952L44.2329 19.844C44.9558 19.9027 45.2684 20.3326 45.2098 21.1924L44.9851 24.3776C44.9167 25.2471 44.5455 25.6184 43.8226 25.5696H43.2072L43.6175 19.7952Z" fill="#1D1D1B"/>
<path d="M77.8273 64.1338V55.7116L81.2268 41.6616H78.1106L76.9676 46.6934C76.613 48.261 76.394 49.8563 76.3131 51.4615H76.1959C76.1679 49.8189 75.9815 48.1829 75.6391 46.5762L74.4766 41.6616H71.2041L74.4766 55.7116V64.1338H77.8273Z" fill="#1D1D1B"/>
<path d="M44.2719 41.5928L36.9648 41.8566L37.7561 64.3092L45.0631 64.0454L44.9557 60.958L40.9505 61.1045L40.677 53.4053L44.5942 53.2588L44.4868 50.2983L40.5695 50.4351L40.3741 44.7975L44.3793 44.6509L44.2719 41.5928Z" fill="#1D1D1B"/>
<path d="M61.8655 68.5894L60.8007 77.6662C60.4881 80.1284 60.2634 83.2842 60.1462 87.1045H59.9801C59.9513 84.5408 59.785 81.9805 59.4819 79.4347L58.3292 68.5991H54.9395L57.5477 91.3449H62.4321L65.1478 68.6089L61.8655 68.5894Z" fill="#1D1D1B"/>
<path d="M28.8662 88.2082L28.3191 80.4308L32.2755 80.1377L32.0703 77.1577L28.1042 77.4313L27.7037 71.7351L31.7577 71.442L31.5428 68.3545L24.1674 68.8821V68.589H16.7627V91.3347H20.1036V80.4015H24.0795V77.402H20.1036V71.6862H24.1674V69.0677L25.7597 91.5692L33.1351 91.0319L32.9202 87.9151L28.8662 88.2082Z" fill="#1D1D1B"/>
<path d="M42.3379 83.7627C42.1529 82.5353 41.5488 81.4099 40.6283 80.5775L36.2617 76.1417C35.8035 75.5379 35.5409 74.8082 35.5095 74.0508L35.2555 72.4289C35.1285 71.5495 35.2555 71.061 36.0175 70.934C36.7795 70.807 37.0725 71.2564 37.1995 72.126L37.9224 76.8745L41.2243 76.3664L40.5502 71.9013C40.1204 69.0581 38.4206 67.8172 35.6072 68.2569C32.7938 68.6965 31.563 70.3771 31.9928 73.2105L32.364 75.6531C32.4755 76.7884 32.9678 77.8525 33.7609 78.6722L38.3229 83.3914C38.7594 83.8367 39.0462 84.4071 39.1435 85.0231L39.4952 87.368C39.6222 88.2473 39.4952 88.7847 38.7137 88.902C37.9322 89.0192 37.6782 88.5502 37.5512 87.6709L36.7892 82.6098L33.4777 83.1276L34.22 88.0128C34.6499 90.8561 36.3301 92.0969 39.1044 91.667C41.8787 91.2371 43.178 89.5371 42.7482 86.7036L42.3379 83.7627Z" fill="#1D1D1B"/>
<path d="M50.1621 68.7749L41.0186 68.9215L41.0674 71.8624L43.9687 71.8135L44.2911 91.6086L47.632 91.55L47.3096 71.7549L50.2109 71.7061L50.1621 68.7749Z" fill="#1D1D1B"/>
<path d="M51.0876 68.5288L50.3379 91.2524L53.677 91.3626L54.4267 68.639L51.0876 68.5288Z" fill="#1D1D1B"/>
<path d="M39.5345 36.9912L39.4368 34.3141L35.9591 34.4313L35.7344 27.7483L39.1242 27.6311L39.0363 25.0614L35.6465 25.1787L35.4707 20.2836L38.9483 20.1664L38.8604 17.5088L32.5205 17.7335L33.1946 37.2062L39.5345 36.9912Z" fill="#1D1D1B"/>
<path d="M20.251 42.8242L26.796 64.2998L29.9611 63.313L23.4063 41.8472L20.251 42.8242Z" fill="#1D1D1B"/>
<path d="M24.0795 61.0952H20.0645V41.7202H16.7627V64.1924H24.0795V61.0952Z" fill="#1D1D1B"/>
<path d="M33.2918 64.2414L33.9756 44.6808L36.8476 44.7882L36.9453 41.8864L27.9092 41.564L27.8018 44.4658L30.6738 44.5635L29.99 64.1241L33.2918 64.2414Z" fill="#1D1D1B"/>
<path d="M19.7715 37.6065C20.3347 37.6208 20.8897 37.4691 21.3674 37.1703C21.845 36.8714 22.2243 36.4387 22.4579 35.9259H22.5361L22.6923 37.1179H24.1967V34.9098C24.5093 36.5121 25.6523 37.411 27.5963 37.5381C30.0189 37.6846 31.3768 36.4926 31.5038 34.0402L32.4806 17.8798L29.6184 17.7039L28.6415 33.962C28.5927 34.7241 28.3875 35.1443 27.6646 35.1052C26.9418 35.0661 26.8636 34.6167 26.9124 33.8644L27.8893 17.6062L25.0075 17.4205L24.1088 32.0763V27.1911H20.0157V29.6044H21.2466V33.8741C21.2466 34.6362 21.061 35.0661 20.3869 35.0661C19.7129 35.0661 19.5663 34.6362 19.5663 33.8741V20.7035C19.5663 19.9414 19.7226 19.531 20.3869 19.531C21.0512 19.531 21.2466 19.9414 21.2466 20.7035V24.8168H24.1088V20.9086C24.1088 18.4465 22.8291 17.1665 20.3869 17.1665C17.9447 17.1665 16.6748 18.4367 16.6748 20.9086V33.6982C16.6748 36.2679 17.72 37.6065 19.7031 37.6065" fill="#1D1D1B"/>
<path d="M62.1489 41.7202H57.118L54.4609 64.1924H57.7334L58.4368 58.1347H60.5078L61.1916 64.1924H64.5521L62.1489 41.7202ZM58.7103 55.1938L59.1206 49.6343C59.2769 47.3187 59.3649 45.7945 59.4235 45.0422H59.5895C59.7458 46.8497 59.863 48.3544 59.9216 49.5953L60.2636 55.184L58.7103 55.1938Z" fill="#1D1D1B"/>
<path d="M50.4167 41.6813L46.5092 41.4565L45.2588 63.9287L48.5606 64.1144L49.137 53.6404H49.264C50.4655 53.7088 51.0516 54.1485 51.0028 55.1451L50.7293 60.0303C50.7293 60.6263 50.6804 60.939 50.6804 61.0074C50.5607 62.0815 50.6435 63.1685 50.9246 64.2121L54.4121 64.4075C54.0043 63.0669 53.8812 61.6558 54.0507 60.2648L54.3144 55.6922C54.4218 53.6599 53.3961 52.5754 51.2079 52.4191V52.2627C53.5427 52.0185 54.5586 50.9828 54.6856 48.6476L54.8321 46.0291C54.9884 43.098 53.7087 41.8474 50.4069 41.652L50.4167 41.6813ZM51.5108 45.7849L51.3056 49.4586C51.247 50.4357 50.8269 50.9046 49.9868 50.8558H49.2737L49.6449 44.2509H50.3483C51.1884 44.2998 51.5596 44.7981 51.5108 45.7947" fill="#1D1D1B"/>
<path d="M73.3636 59.6296L72.9045 55.057C72.6993 53.0442 71.5271 52.1258 69.3487 52.3212V52.1942C71.615 51.5884 72.4551 50.4062 72.2793 48.0808L72.0155 45.4721C71.7224 42.5409 70.2669 41.5052 66.9749 41.8374L63.0674 42.2283L65.2751 64.5832L68.5672 64.251L67.5317 53.8259H67.6587C68.8505 53.7086 69.505 54.0506 69.6124 55.0374L70.1009 59.9227L70.1985 60.8997C70.2476 61.9804 70.5029 63.0416 70.9507 64.0263L74.4186 63.6746C73.8092 62.4145 73.4761 61.0387 73.4418 59.6393L73.3636 59.6296ZM67.9908 51.0022L67.2875 51.0706L66.6329 44.4853L67.3363 44.4169C68.1666 44.3289 68.616 44.7588 68.7137 45.7554L69.0751 49.4194C69.1728 50.3964 68.8211 50.9143 67.9908 51.0022Z" fill="#1D1D1B"/>
<path d="M77.0755 88.1988V68.5894H73.7347V90.9248L71.3413 68.5894H66.2518L63.5654 91.3449H66.877L67.5999 85.2188H69.6904L70.3742 91.3449H81.1198V88.2183L77.0755 88.1988ZM67.8734 82.2681L68.2837 76.6403C68.44 74.2954 68.5377 72.7321 68.5963 71.9993H68.7526C68.9089 73.8362 69.0359 75.3506 69.0945 76.611L69.4364 82.2681H67.8734Z" fill="#1D1D1B"/>
<path d="M0 109H97.9902V0H0V109ZM4.33732 4.38696H93.6529V104.613H4.33732V4.38696Z" fill="#1D1D1B"/>
</g>
<defs>
<clipPath id="clip0_303_4313">
<rect width="98" height="109" fill="white"/>
</clipPath>
</defs>
</svg>
