<svg width="161" height="46" viewBox="0 0 161 46" fill="none" xmlns="http://www.w3.org/2000/svg">
<path d="M23.9964 21.8799V25.0103H30.1589V23.9055L27.6939 23.8073V7.84861H21.6547V8.95343H23.9471V17.743C23.9589 19.271 23.5312 20.7704 22.7147 22.0641C22.3319 22.6557 21.801 23.1377 21.1742 23.4628C20.5475 23.7878 19.8465 23.9446 19.1404 23.9177C18.5104 23.9395 17.8936 23.7347 17.4026 23.3408C16.7456 22.4682 16.4421 21.3815 16.5522 20.2964V7.7995H10.9567V8.90434H12.8301V20.4191C12.7625 21.7572 13.2024 23.0718 14.0626 24.1019C14.6114 24.563 15.2478 24.9093 15.9339 25.1202C16.6199 25.3311 17.3416 25.4023 18.0558 25.3295C19.2754 25.3914 20.4867 25.0982 21.5417 24.4856C22.5967 23.873 23.4497 22.9675 23.9964 21.8799Z" fill="#001489"/>
<path d="M41.3008 23.8072H38.9221V0.0287716H33.0555V1.04767H35.1753V23.8072H33.0555V24.912H41.3008V23.8072Z" fill="#001489"/>
<path d="M50.2239 7.81149H44.3573V8.83039H46.4895V23.807H44.3573V24.9118H52.6889V23.807H50.2239V7.81149Z" fill="#001489"/>
<path d="M58.1734 24.1142C58.7226 24.5746 59.3591 24.9206 60.045 25.1314C60.731 25.3423 61.4525 25.4138 62.1667 25.3417C63.3891 25.4019 64.6027 25.1066 65.6597 24.492C66.7166 23.8773 67.5713 22.9698 68.1196 21.8799V25.0103H74.4053V23.9055L71.8048 23.8073V7.84861H65.7779V8.95343H68.0703V17.743C68.082 19.271 67.6544 20.7704 66.8378 22.0641C66.457 22.6547 65.9283 23.1363 65.3037 23.4613C64.6791 23.7864 63.9802 23.9437 63.2759 23.9177C62.6404 23.9518 62.0154 23.7458 61.5258 23.3408C60.8688 22.4682 60.5652 21.3815 60.6754 20.2964V7.7995H55.0676V8.90434H56.9409V20.4191C56.8702 21.7614 57.3103 23.0809 58.1734 24.1142Z" fill="#001489"/>
<path d="M123.249 18.136C123.249 12.9801 119.884 11.7893 116.187 11.3719C119.588 10.6108 121.289 8.74899 121.289 5.78641C121.359 5.0393 121.274 4.28594 121.041 3.57247C120.808 2.85901 120.431 2.20046 119.934 1.63717C119.243 1.0445 118.44 0.596623 117.571 0.32031C116.703 0.043997 115.788 -0.0550696 114.88 0.0290352H103.788V1.04792H106.167V23.7338H103.788V24.8263H115.201C118.344 24.8263 120.427 24.2002 121.659 22.9726C122.239 22.3147 122.68 21.5477 122.958 20.717C123.235 19.8863 123.342 19.0087 123.274 18.136H123.249ZM110.308 1.04792H113.451C113.888 1.01632 114.328 1.07528 114.741 1.22105C115.155 1.36683 115.534 1.59626 115.854 1.89496C116.34 2.473 116.689 3.15301 116.875 3.88422C117.061 4.61544 117.078 5.37898 116.926 6.11786C116.926 9.46918 115.916 10.6968 113.106 10.6968H110.308V1.04792ZM118.8 17.9764C118.8 20.9349 118.208 23.8933 113.537 23.8933H110.308V12.0471H114.153C114.752 12.0016 115.354 12.0759 115.923 12.2656C116.492 12.4554 117.018 12.7567 117.469 13.1519C118.455 14.0603 118.972 15.6071 118.8 17.9764Z" fill="#001489"/>
<path d="M158.362 7.6155C156.243 7.6155 154.197 9.72696 152.41 13.5325V7.72598H146.247V8.83082H148.712V23.881H146.42V24.8999H154.702V23.7951H152.397V17.8781C152.397 14.5268 153.938 11.2737 157.081 10.8441C158.124 10.6759 159.191 10.705 160.224 10.93L161 8.02061C160.147 7.75014 159.257 7.61346 158.362 7.6155Z" fill="#001489"/>
<path d="M141.662 23.3532C141.241 22.734 141.058 21.9846 141.145 21.2418V12.4768C141.193 11.8123 141.109 11.1449 140.897 10.5129C140.686 9.88094 140.351 9.29679 139.912 8.79403C138.889 7.77513 137.189 7.35774 134.637 7.35774C132.776 7.35774 128.352 7.77513 128.352 11.5929C128.327 11.7629 128.345 11.9365 128.405 12.0974C128.466 12.2584 128.566 12.4016 128.697 12.5136C128.881 12.6739 129.097 12.7947 129.33 12.8686C129.563 12.9425 129.809 12.9679 130.052 12.9433C130.73 12.9433 131.162 12.8573 131.408 12.5136C131.739 12.1099 131.906 11.5975 131.877 11.0773C131.841 10.3554 132.05 9.64238 132.468 9.05181C133.071 8.58762 133.831 8.37618 134.588 8.46258C134.911 8.42761 135.238 8.46212 135.546 8.56378C135.854 8.66544 136.137 8.83186 136.375 9.05181C137.003 10.0004 137.274 11.1398 137.139 12.2681V13.6184C135.927 14.0495 134.692 14.4183 133.442 14.7233L131.322 15.2266C128.167 15.9877 126.811 17.5099 126.811 20.2229C126.75 20.9204 126.827 21.623 127.038 22.2908C127.25 22.9585 127.591 23.5782 128.043 24.1143C128.541 24.5622 129.127 24.9025 129.763 25.1138C130.4 25.3251 131.073 25.4028 131.741 25.3419C132.769 25.437 133.804 25.2506 134.734 24.8028C135.663 24.3549 136.452 23.6627 137.016 22.8008C137.608 24.7404 138.963 24.9122 140.837 24.9122H143.561V23.8811C142.796 23.8811 142.192 23.8811 141.773 23.4514L141.662 23.3532ZM133.701 24.0652C133.472 24.069 133.244 24.0263 133.032 23.9397C132.821 23.8532 132.629 23.7247 132.468 23.5619C131.877 22.9727 131.618 21.9538 131.618 20.1738C131.618 17.2153 132.296 16.491 134.255 15.8527L137.694 14.8706V17.9273C137.694 20.1983 136.585 24.0652 133.701 24.0652Z" fill="#001489"/>
<path d="M88.5173 23.4757C88.9821 23.0421 89.3514 22.517 89.6017 21.9338C89.8521 21.3505 89.9781 20.7218 89.9716 20.0876C89.9716 15.9874 87.0136 15.0053 84.3022 14.1583C82.2562 13.4831 80.4815 12.9307 80.4815 11.1139C80.4716 10.8335 80.519 10.554 80.6206 10.2924C80.7223 10.0308 80.8762 9.79237 81.0731 9.59167C81.6797 9.05955 82.4721 8.7862 83.2792 8.83057C84.1929 8.77884 85.0958 9.0482 85.8305 9.59167C86.6434 10.3954 87.1787 11.4358 87.3588 12.5624H88.5912L88.3817 12.3047V8.49912C86.7569 7.84272 85.031 7.46903 83.2792 7.3943C80.4815 7.3943 77.6467 9.00243 77.6467 12.6361C77.6467 15.8524 80.4568 16.8713 82.8232 17.8042C84.9554 18.5653 86.9151 19.3264 86.9151 21.3642C86.9151 23.402 85.0417 24.3227 83.2176 24.3227C80.5801 24.3227 78.793 22.7146 78.4602 19.7438H77.2277V24.3227C79.1587 25.0306 81.1971 25.4043 83.2546 25.4276C85.1937 25.4646 87.0747 24.767 88.5173 23.4757Z" fill="#001489"/>
<path d="M48.3259 4.68128C48.911 4.68128 49.4721 4.44978 49.8858 4.03769C50.2996 3.6256 50.532 3.06669 50.532 2.48391C50.532 1.90113 50.2996 1.3422 49.8858 0.930113C49.4721 0.518024 48.911 0.286517 48.3259 0.286517C47.7417 0.28974 47.1825 0.522279 46.7694 0.933672C46.3564 1.34506 46.1229 1.90212 46.1197 2.48391C46.1181 2.77293 46.174 3.0594 46.2843 3.32673C46.3946 3.59407 46.557 3.83695 46.7622 4.04132C46.9674 4.24569 47.2113 4.40747 47.4797 4.51733C47.7481 4.62718 48.0357 4.68291 48.3259 4.68128Z" fill="#001489"/>
<path d="M131.544 4.68128C132.129 4.68128 132.69 4.44977 133.104 4.03768C133.517 3.62559 133.75 3.06668 133.75 2.4839C133.75 1.90112 133.517 1.34219 133.104 0.930104C132.69 0.518015 132.129 0.286508 131.544 0.286508C130.976 0.273248 130.425 0.483691 130.012 0.87213C129.599 1.26057 129.357 1.79564 129.337 2.36114V2.4839C129.35 3.06275 129.586 3.61441 129.997 4.02382C130.409 4.43322 130.962 4.66876 131.544 4.68128Z" fill="#001489"/>
<path d="M138.483 4.68138C138.772 4.68629 139.059 4.63362 139.327 4.52647C139.595 4.41932 139.839 4.25985 140.045 4.05743C140.25 3.85501 140.413 3.61372 140.524 3.34773C140.634 3.08174 140.69 2.79643 140.689 2.50854C140.668 2.21971 140.591 1.93772 140.461 1.67877C140.331 1.41983 140.151 1.18905 139.931 0.999681C139.711 0.810314 139.456 0.666091 139.18 0.575319C138.904 0.484547 138.612 0.449007 138.322 0.470741C137.793 0.512465 137.295 0.740247 136.918 1.11346C136.541 1.48667 136.309 1.98106 136.264 2.50854C136.266 2.79654 136.324 3.08138 136.437 3.34668C136.549 3.61198 136.714 3.85251 136.92 4.05443C137.126 4.25636 137.37 4.41571 137.638 4.5233C137.907 4.6309 138.193 4.68462 138.483 4.68138Z" fill="#001489"/>
<path d="M0.258822 1.13359H2.55125V24.9979C2.46498 28.1283 2.04593 30.0801 0.419042 30.5834L0 30.7185V31.7374C0.686792 31.785 1.37686 31.7271 2.04594 31.5655C4.92996 30.8412 6.63079 28.5579 6.63079 25.0838V0.114693L0.258822 0.0287716V1.13359Z" fill="#001489"/>
<path d="M24.0459 41.3372L21.6672 37.5194H20.6442L23.5406 42.0983V45.8178H24.4772V42.1842L27.3613 37.5194H26.3383L24.0459 41.3372Z" fill="#001489"/>
<path d="M31.8598 37.3845C30.7298 37.4039 29.6534 37.868 28.8659 38.6753C28.0784 39.4827 27.6438 40.5677 27.657 41.6933V41.8161C27.647 42.8996 28.0654 43.9435 28.8218 44.7222C29.5783 45.5009 30.612 45.9519 31.6995 45.9776C32.2638 45.9744 32.8217 45.8598 33.3411 45.6403C33.8605 45.4208 34.331 45.1008 34.7254 44.6989C35.1198 44.297 35.4301 43.8211 35.6385 43.2989C35.8468 42.7766 35.9491 42.2184 35.9393 41.6565C35.9455 41.5789 35.9455 41.5009 35.9393 41.4233C35.9296 40.3509 35.4959 39.3255 34.7322 38.5695C33.9686 37.8134 32.9365 37.3877 31.8598 37.3845ZM34.9287 41.6933C34.9533 41.9218 34.9533 42.1523 34.9287 42.3808C34.8387 43.2126 34.4207 43.9748 33.7666 44.4996C33.1125 45.0245 32.2759 45.2691 31.4407 45.1797C30.6059 45.0839 29.8426 44.6642 29.3166 44.0115C28.7905 43.3588 28.544 42.5259 28.6307 41.6933C28.606 41.4689 28.606 41.2425 28.6307 41.0181C28.7268 40.1866 29.1482 39.4264 29.8035 38.9024C30.4588 38.3784 31.2951 38.133 32.1309 38.2192C32.9604 38.3089 33.7205 38.7222 34.2448 39.3687C34.7691 40.0152 35.015 40.8422 34.9287 41.6688V41.6933Z" fill="#001489"/>
<path d="M43.1372 42.7734C43.1495 42.8836 43.1495 42.9947 43.1372 43.1049C43.1169 43.3937 43.0395 43.6757 42.9095 43.9346C42.7794 44.1936 42.5992 44.4244 42.3793 44.6137C42.1594 44.8031 41.9041 44.9473 41.6281 45.0381C41.3521 45.1289 41.0607 45.1644 40.7709 45.1427C40.4792 45.1225 40.1945 45.045 39.9331 44.9149C39.6716 44.7847 39.4385 44.6044 39.2473 44.3842C39.056 44.164 38.9103 43.9084 38.8185 43.632C38.7268 43.3555 38.6908 43.0638 38.7126 42.7734V37.5194H37.7759V42.8594C37.7636 43.0228 37.7636 43.187 37.7759 43.3504C37.8418 44.1153 38.2097 44.8229 38.799 45.3178C39.3883 45.8127 40.1507 46.0543 40.9187 45.9897H41.3378C41.7234 45.9633 42.0999 45.8612 42.4457 45.6894C42.7915 45.5175 43.0998 45.2793 43.3529 44.9884C43.6061 44.6976 43.799 44.3597 43.9206 43.9943C44.0422 43.629 44.0901 43.2432 44.0616 42.8594V37.5194H43.1372V42.7734Z" fill="#001489"/>
<path d="M51.2099 39.9009C51.2099 38.5382 50.1869 37.4457 48.067 37.4457C47.4252 37.4334 46.7833 37.458 46.1443 37.5193V45.8301H47.081V42.4297H48.5723L50.7785 45.7319H51.8877L49.4228 42.2701C49.9501 42.1426 50.4167 41.8366 50.7426 41.4045C51.0686 40.9723 51.2338 40.4409 51.2099 39.9009ZM48.067 41.8527C47.7237 41.8716 47.3794 41.8427 47.044 41.7668V38.3786C47.4063 38.3179 47.7738 38.2932 48.141 38.305H48.3012C48.7994 38.2816 49.2866 38.4558 49.6562 38.7894C50.0258 39.123 50.2477 39.5889 50.2732 40.085C50.3102 41.0671 49.6323 41.8527 48.067 41.8527Z" fill="#001489"/>
<path d="M59.3198 37.4457C58.6657 37.4334 58.0114 37.458 57.3601 37.5193V45.8178H58.2968V42.9084C58.6026 42.9856 58.9187 43.0146 59.2335 42.9944C59.3853 43.0063 59.5377 43.0063 59.6895 42.9944C60.0672 42.9833 60.439 42.8978 60.7833 42.7428C61.1276 42.5877 61.4377 42.3663 61.6955 42.0911C61.9534 41.816 62.1539 41.4928 62.2856 41.14C62.4173 40.7872 62.4774 40.412 62.4626 40.0359C62.4626 38.6733 61.4396 37.4457 59.3198 37.4457ZM61.4766 40.4901C61.4464 40.7404 61.3662 40.9822 61.2407 41.2011C61.1153 41.4201 60.9471 41.6119 60.7461 41.7651C60.5452 41.9184 60.3154 42.0301 60.0705 42.0936C59.8255 42.1572 59.5703 42.1713 59.3198 42.1351C58.9764 42.1539 58.6321 42.125 58.2968 42.0491V38.3664C58.6591 38.3056 59.0265 38.2809 59.3937 38.2927C59.5372 38.2802 59.6816 38.2802 59.8251 38.2927C60.0806 38.324 60.327 38.4065 60.5497 38.535C60.7724 38.6636 60.9667 38.8357 61.1209 39.0409C61.2752 39.2461 61.3862 39.4803 61.4473 39.7293C61.5084 39.9784 61.5184 40.2371 61.4766 40.4901Z" fill="#001489"/>
<path d="M69.4877 39.9009C69.4877 38.5382 68.4648 37.4457 66.3449 37.4457C65.6908 37.4334 65.0366 37.458 64.3852 37.5193V45.8301H65.3219V42.4297H66.9365L69.155 45.7319H70.2519L67.7869 42.2946C68.3038 42.1517 68.7553 41.8355 69.0652 41.3993C69.3751 40.9632 69.5243 40.4339 69.4877 39.9009ZM66.3449 41.8527C66.0016 41.8716 65.6573 41.8427 65.3219 41.7668V38.3786C65.6883 38.3175 66.0599 38.2928 66.4312 38.305H66.5544C67.0527 38.2816 67.5399 38.4558 67.9095 38.7894C68.279 39.123 68.5009 39.5888 68.5264 40.085C68.5511 41.0671 67.8732 41.8527 66.3449 41.8527Z" fill="#001489"/>
<path d="M72.8279 37.5194H71.8912V45.8178H72.8279V37.5194Z" fill="#001489"/>
<path d="M80.9006 37.5194L78.0906 44.1238L75.2928 37.5194H74.2698L78.0166 45.9897H78.1768L81.8373 37.5194H80.9006Z" fill="#001489"/>
<path d="M85.0418 37.3845L81.3443 45.8426H82.281L83.2177 43.5593H86.9152L87.8519 45.8426H88.9611L85.2636 37.3845H85.0418ZM83.5381 42.835L85.0418 39.1522L86.5701 42.835H83.5381Z" fill="#001489"/>
<path d="M88.6282 38.2805H91.4383V45.8178H92.2887V38.2805H95.0865V37.5194H88.6282V38.2805Z" fill="#001489"/>
<path d="M96.8738 45.8178H101.804V44.9708H97.8105V42.0123H101.372V41.1653H97.8105V38.2805H101.804V37.5194H96.8738V45.8178Z" fill="#001489"/>
<path d="M110.813 41.5458C111.234 41.4247 111.603 41.1693 111.863 40.8188C112.124 40.4683 112.262 40.0423 112.255 39.6062C112.255 38.5873 111.319 37.4948 109.371 37.4948C108.693 37.4948 108.003 37.5684 107.584 37.5684V45.8301C108.139 45.8301 108.693 45.916 109.371 45.916C111.282 45.916 112.514 44.8603 112.514 43.6327C112.53 43.1392 112.367 42.6563 112.055 42.2729C111.742 41.8895 111.302 41.6313 110.813 41.5458ZM108.348 38.3295H109.285C110.517 38.3295 111.232 39.017 111.232 39.7781C111.232 40.5392 110.727 41.3003 109.285 41.3003C108.94 41.3003 108.607 41.2144 108.348 41.2144V38.3295ZM109.371 45.1427C109.028 45.1685 108.682 45.1395 108.348 45.0567V42.0123C108.684 41.9416 109.028 41.9128 109.371 41.9264C110.727 41.9264 111.491 42.7734 111.491 43.5345C111.491 44.5534 110.604 45.1427 109.371 45.1427Z" fill="#001489"/>
<path d="M117.271 37.3845L113.574 45.8426H114.498L115.435 43.5593H119.132L120.057 45.8426H121.166L117.468 37.3845H117.271ZM115.743 42.835L117.271 39.1522L118.8 42.835H115.743Z" fill="#001489"/>
<path d="M127.982 43.7925L122.621 37.3599L122.46 37.4458V45.818H123.385V39.4714L128.746 45.9899H128.919V37.5195H127.982V43.7925Z" fill="#001489"/>
<path d="M136.905 37.5194H135.796L132.147 41.3372V37.5194H131.211V45.8178H132.147V41.7545L135.968 45.8178H137.065L133.072 41.4967L136.905 37.5194Z" fill="#001489"/>
</svg>
